<?xml version="1.0" standalone="no"?>
<!DOCTYPE svg PUBLIC "-//W3C//DTD SVG 1.1//EN" "http://www.w3.org/Graphics/SVG/1.1/DTD/svg11.dtd" >
<svg xmlns="http://www.w3.org/2000/svg" xmlns:xlink="http://www.w3.org/1999/xlink" version="1.1">
<metadata></metadata>
<defs>
<font id="robotocondensed" horiz-adv-x="1008" >
<font-face units-per-em="2048" ascent="1536" descent="-512" />
<missing-glyph horiz-adv-x="450" />
<glyph unicode="&#xfb01;" horiz-adv-x="1037" d="M29 937v145h143v111q0 185 98.5 286.5t275.5 101.5q63 0 126 -15.5t138 -44.5l-31 -158q-51 22 -104 35.5t-116 13.5q-94 0 -139 -55.5t-45 -163.5v-111h188v-145h-188v-937h-203v937h-143zM702 0v1082h204v-1082h-204z" />
<glyph horiz-adv-x="0" />
<glyph unicode="&#xd;" horiz-adv-x="450" />
<glyph horiz-adv-x="450" />
<glyph horiz-adv-x="450" />
<glyph horiz-adv-x="13" />
<glyph unicode="&#x9;" horiz-adv-x="13" />
<glyph unicode=" "  horiz-adv-x="450" />
<glyph unicode="&#x09;" horiz-adv-x="450" />
<glyph unicode="&#xa0;" horiz-adv-x="450" />
<glyph unicode="!" horiz-adv-x="477" d="M136 0v204h206v-204h-206zM137 485v971h204v-971h-204z" />
<glyph unicode="&#x22;" horiz-adv-x="705" d="M129 951l5 246v259h179v-250l-87 -255h-97zM409 951l5 252v253h178v-250l-86 -255h-97z" />
<glyph unicode="#" horiz-adv-x="1085" d="M57 410v130h221l59 368h-215v132h236l66 416h139l-67 -416h198l67 416h138l-66 -416h184v-132h-205l-58 -368h198v-130h-218l-65 -410h-140l65 410h-198l-65 -410h-138l65 410h-201zM417 540h198l58 368h-198z" />
<glyph unicode="$" horiz-adv-x="1045" d="M109 423l3 5h196q0 -156 62.5 -223t157.5 -67q98 0 151.5 64t53.5 168q0 96 -48 158t-166 117q-186 68 -276.5 166t-90.5 271q0 164 88 268t241 123v212h131v-213q150 -22 234.5 -137.5t84.5 -305.5h-203q0 130 -50 209t-139 79q-93 0 -138 -64.5t-45 -168.5 q0 -98 46 -157.5t171 -117.5q184 -69 274 -167t90 -270q0 -168 -91.5 -270t-249.5 -119v-193h-131v193q-157 17 -258 124t-98 316z" />
<glyph unicode="%" horiz-adv-x="1370" d="M98 1099v77q0 128 73.5 214.5t200.5 86.5t201 -86.5t74 -214.5v-77q0 -128 -73.5 -213.5t-199.5 -85.5q-128 0 -202 85.5t-74 213.5zM242 1099q0 -75 34 -127t98 -52q61 0 95 52t34 127v77q0 75 -34.5 128t-96.5 53q-63 0 -96.5 -53t-33.5 -128v-77zM334 176l612 1138 l105 -63l-612 -1138zM732 279v78q0 127 74 213.5t201 86.5t201 -86t74 -214v-78q0 -129 -74 -214.5t-200 -85.5q-128 0 -202 86t-74 214zM876 279q0 -74 35.5 -127t96.5 -53q65 0 97.5 51t32.5 129v78q0 76 -34 128t-97 52t-97 -52t-34 -128v-78z" />
<glyph unicode="&#x26;" horiz-adv-x="1189" d="M67 383q0 123 63 215t188 190q-68 97 -101 176t-33 161q0 169 90 260.5t246 91.5q141 0 228 -89.5t87 -218.5q0 -98 -41.5 -168.5t-121.5 -136.5l-111 -90l296 -390l6 1q32 58 50 132t18 158h172q0 -132 -33.5 -242.5t-100.5 -196.5l179 -236h-239l-79 105 q-75 -62 -159.5 -94t-179.5 -32q-194 0 -309 111.5t-115 292.5zM273 388q0 -110 59 -182.5t165 -72.5q64 0 126 23.5t116 69.5l-323 430l-21 -17q-72 -72 -97 -134.5t-25 -116.5zM375 1127q0 -50 22.5 -105t67.5 -119l103 80q51 40 69.5 84t18.5 97q0 65 -37 111t-102 46 q-67 0 -104.5 -56t-37.5 -138z" />
<glyph unicode="'" horiz-adv-x="408" d="M107 951l5 266v239h192v-226l-87 -279h-110z" />
<glyph unicode="(" horiz-adv-x="607" d="M117 574v16q0 379 132.5 660.5t288.5 372.5h6l37 -108q-114 -102 -197 -344t-83 -579v-20q0 -337 83 -578t197 -349l-37 -102h-6q-157 91 -289 369t-132 662z" />
<glyph unicode=")" horiz-adv-x="612" d="M23 -355q113 102 197.5 345.5t84.5 581.5v20q0 334 -86.5 579.5t-195.5 349.5l39 102h6q157 -90 292 -373.5t135 -659.5v-16q0 -380 -134.5 -660t-292.5 -371h-6z" />
<glyph unicode="*" horiz-adv-x="793" d="M68 764l43 137l221 -87l-3 267h141v-273l213 89l44 -138l-220 -78l134 -213l-115 -86l-134 225l-130 -219l-117 82l139 220z" />
<glyph unicode="+" horiz-adv-x="1037" d="M66 600v174h349v432h199v-432h350v-174h-350v-454h-199v454h-349z" />
<glyph unicode="," horiz-adv-x="414" d="M58 -271l60 302v185h200v-192l-130 -295h-130z" />
<glyph unicode="-" horiz-adv-x="787" d="M137 542v155h507v-155h-507z" />
<glyph unicode="." horiz-adv-x="500" d="M138 0v203h205v-203h-205z" />
<glyph unicode="/" horiz-adv-x="730" d="M9 -125l490 1581h189l-490 -1581h-189z" />
<glyph unicode="0" horiz-adv-x="1056" d="M100 518v419q0 248 116 394t311 146t312 -145.5t117 -394.5v-419q0 -250 -116.5 -394.5t-310.5 -144.5q-195 0 -312 144.5t-117 394.5zM305 490q0 -165 59 -261t165 -96t163.5 95.5t57.5 261.5v476q0 165 -58.5 260t-164.5 95t-164 -95t-58 -260v-476z" />
<glyph unicode="1" horiz-adv-x="1056" d="M185 1266v151l488 60v-1477h-204v1284z" />
<glyph unicode="2" horiz-adv-x="1056" d="M108 1040q-4 183 111 310t310 127q187 0 292 -108.5t105 -290.5q0 -123 -63.5 -238.5t-194.5 -282.5l-284 -403h585v-154h-841v135l412 539q101 140 140.5 230t39.5 174q0 111 -48.5 177t-142.5 66q-106 0 -162.5 -81t-56.5 -206h-199z" />
<glyph unicode="3" horiz-adv-x="1056" d="M101 386l2 6h197q0 -110 64.5 -184.5t165.5 -74.5q105 0 167 73.5t62 193.5q0 137 -60 204t-177 67h-140v153h140q110 0 162 67.5t52 181.5q0 110 -52.5 179t-153.5 69q-93 0 -154 -69t-61 -176h-198l-2 6q-5 168 114.5 281.5t300.5 113.5q190 0 301.5 -105t111.5 -300 q0 -104 -53 -189t-146 -131q106 -43 163 -132t57 -218q0 -198 -121.5 -310.5t-312.5 -112.5q-173 0 -303.5 108.5t-125.5 298.5z" />
<glyph unicode="4" horiz-adv-x="1056" d="M65 456l554 1000h212v-959h169v-155h-169v-342h-205v342h-555zM266 497h360v678l-6 2l-27 -62z" />
<glyph unicode="5" horiz-adv-x="1056" d="M131 378l2 5l193 4q0 -122 58 -188t152 -66q110 0 165 85.5t55 244.5q0 145 -56.5 231t-162.5 86q-95 0 -142 -37.5t-68 -111.5l-177 17l74 808h689v-167h-518l-40 -438q40 38 95.5 62.5t128.5 26.5q179 2 280.5 -125t101.5 -350q0 -219 -106 -352.5t-319 -133.5 q-173 0 -291.5 102.5t-113.5 296.5z" />
<glyph unicode="6" horiz-adv-x="1056" d="M115 546v350q0 257 136.5 419t341.5 162q76 0 146 -17t126 -46l-40 -149q-52 27 -106 41t-126 14q-121 0 -197.5 -113t-76.5 -297v-114q53 63 129 99t167 36q170 0 265.5 -127.5t95.5 -339.5q0 -218 -116 -351.5t-305 -133.5q-192 0 -316 152t-124 415zM319 535 q0 -187 66 -295t170 -108q101 0 159 93.5t58 238.5q0 148 -59 233t-165 85q-82 0 -140.5 -39t-88.5 -106v-102z" />
<glyph unicode="7" horiz-adv-x="1056" d="M81 1300v156h891v-156q-229 -291 -318 -550t-89 -591v-159h-205v159q0 330 106.5 603.5t304.5 537.5h-690z" />
<glyph unicode="8" horiz-adv-x="1056" d="M89 399q0 124 70 217.5t190 138.5q-102 43 -160.5 129.5t-58.5 199.5q0 190 113.5 291.5t295.5 101.5q174 0 283.5 -101.5t109.5 -291.5q0 -113 -57 -199.5t-153 -129.5q113 -45 181.5 -139t68.5 -217q0 -200 -121.5 -310t-310.5 -110q-198 0 -324.5 110t-126.5 310z M295 404q0 -124 69 -197.5t176 -73.5q98 0 162.5 74t64.5 197q0 120 -66 196t-162 76q-105 0 -174.5 -76t-69.5 -196zM335 1080q0 -112 57.5 -180t147.5 -68q82 0 134.5 68t52.5 180q0 107 -53.5 174t-134.5 67q-91 0 -147.5 -64.5t-56.5 -176.5z" />
<glyph unicode="9" horiz-adv-x="1056" d="M86 978q0 216 118.5 357.5t298.5 141.5q195 0 315.5 -140t120.5 -393v-440q0 -246 -130.5 -385.5t-335.5 -139.5q-69 0 -140.5 16t-133.5 47l33 147q57 -30 113 -43t128 -13q116 0 188 96t72 269v140q-44 -70 -109.5 -107t-141.5 -37q-184 0 -290 131t-106 353zM292 978 q0 -148 55 -240.5t156 -92.5q82 0 140.5 44t89.5 114v171q0 168 -61 257.5t-166 89.5q-94 0 -154 -98t-60 -245z" />
<glyph unicode=":" horiz-adv-x="479" d="M138 0v203h205v-203h-205zM138 876v203h205v-203h-205z" />
<glyph unicode=";" horiz-adv-x="473" d="M109 -271l60 302v185h200v-192l-130 -295h-130zM139 876v203h205v-203h-205z" />
<glyph unicode="&#x3c;" horiz-adv-x="910" d="M61 477v151l722 374v-192l-505 -243l-65 -14v-6l65 -14l505 -240v-192z" />
<glyph unicode="=" horiz-adv-x="1017" d="M130 390v160h745v-160h-745zM130 808v160h745v-160h-745z" />
<glyph unicode="&#x3e;" horiz-adv-x="928" d="M114 89v189l525 247l63 13v6l-63 15l-525 243v188l743 -374v-152z" />
<glyph unicode="?" horiz-adv-x="867" d="M49 1109q-3 172 102 270t270 98q179 0 280.5 -105t101.5 -286q0 -130 -61 -236.5t-162 -208.5q-50 -51 -63 -97.5t-13 -135.5h-204q1 133 28.5 191t122.5 151q73 91 111 163t38 170q0 110 -46.5 171.5t-132.5 61.5q-73 0 -123.5 -56.5t-50.5 -156.5h-196zM299 0v198h209 v-198h-209z" />
<glyph unicode="@" horiz-adv-x="1661" d="M89 478q17 425 227.5 684.5t553.5 259.5q346 0 528.5 -244.5t168.5 -668.5q-9 -216 -111.5 -373t-305.5 -157q-70 0 -120 45t-69 127q-43 -86 -106 -128.5t-145 -42.5q-121 0 -185.5 120t-47.5 316q21 255 126.5 409.5t256.5 154.5q97 0 155.5 -26t130.5 -81l-3 -3h5 l-46 -577q-8 -115 17 -157.5t65 -42.5q111 0 176.5 117t73.5 299q15 376 -127 586t-441 210q-278 0 -447.5 -227t-182.5 -600q-17 -370 135 -590.5t434 -220.5q78 0 159.5 21t137.5 55l34 -107q-60 -42 -153 -65.5t-181 -23.5q-349 0 -539 249.5t-174 681.5zM646 416 q-11 -142 18.5 -221.5t95.5 -79.5q57 0 104.5 31.5t84.5 114.5q0 6 0.5 13.5t1.5 18.5l42 535q-24 11 -49.5 18t-53.5 7q-108 0 -167.5 -109t-76.5 -328z" />
<glyph unicode="A" horiz-adv-x="1127" d="M32 0l437 1456h197l433 -1456h-211l-105 368h-435l-105 -368h-211zM394 529h344l-168 592h-6z" />
<glyph unicode="B" horiz-adv-x="1130" d="M139 0v1456h403q209 0 326.5 -98t117.5 -294q0 -102 -51 -181t-142 -116q127 -21 195.5 -120.5t68.5 -234.5q0 -201 -115.5 -306.5t-318.5 -105.5h-484zM342 154h281q110 0 170 66.5t60 190.5q0 120 -58.5 192t-164.5 76h-11h-277v-525zM342 825h231q98 3 153.5 63.5 t55.5 171.5q0 120 -61 180t-179 60h-200v-475z" />
<glyph unicode="C" horiz-adv-x="1133" d="M101 525v404q0 258 131 403t352 145q223 1 348 -115q121 -112 121 -324v-14l-2 -6h-195q0 156 -68 229.5t-204 73.5q-134 0 -207 -100.5t-73 -288.5v-407q0 -190 75 -291t212 -101q132 0 198 72.5t66 232.5h195l2 -6v-13q0 -205 -120 -321q-124 -119 -341 -119 q-224 0 -357 143.5t-133 402.5z" />
<glyph unicode="D" horiz-adv-x="1191" d="M139 0v1456h413q236 0 385.5 -175t149.5 -450v-207q0 -276 -149.5 -450t-385.5 -174h-413zM342 154h210q150 0 240 131.5t90 338.5v209q0 204 -90 335.5t-240 131.5h-210v-1146z" />
<glyph unicode="E" horiz-adv-x="989" d="M139 0v1456h780v-156h-577v-469h494v-155h-494v-522h582v-154h-785z" />
<glyph unicode="F" horiz-adv-x="988" d="M139 0v1456h800v-156h-597v-498h509v-155h-509v-647h-203z" />
<glyph unicode="G" horiz-adv-x="1198" d="M103 514v432q0 253 135 392t359 139q221 0 341 -114q116 -110 116 -299v-13l-2 -6h-191q0 131 -66.5 203.5t-193.5 72.5q-137 0 -215.5 -95.5t-78.5 -277.5v-434q0 -186 81.5 -283.5t221.5 -97.5q103 0 164.5 32t89.5 78v339h-268v148h472v-540q-52 -83 -165.5 -147 t-292.5 -64q-228 0 -367.5 139t-139.5 396z" />
<glyph unicode="H" horiz-adv-x="1254" d="M139 0v1456h203v-659h570v659h203v-1456h-203v642h-570v-642h-203z" />
<glyph unicode="I" horiz-adv-x="518" d="M157 0v1456h203v-1456h-203z" />
<glyph unicode="J" horiz-adv-x="985" d="M56 404l3 6h195q0 -141 53.5 -209t148.5 -68q83 0 136 80.5t53 217.5v1025h204v-1025q0 -207 -110 -329.5t-283 -122.5q-186 0 -295 109q-105 104 -105 301v15z" />
<glyph unicode="K" horiz-adv-x="1130" d="M139 0v1456h203v-638h86l406 638h246l-480 -684l517 -772h-258l-417 655h-100v-655h-203z" />
<glyph unicode="L" horiz-adv-x="987" d="M139 0v1456h203v-1302h589v-154h-792z" />
<glyph unicode="M" horiz-adv-x="1494" d="M133 0v1456h265l348 -1188h6l349 1188h260v-1456h-202v1049l-6 1l-334 -1050h-139l-339 1066l-6 -1v-1065h-202z" />
<glyph unicode="N" horiz-adv-x="1255" d="M139 0v1456h203l564 -1071l6 1v1070h204v-1456h-204l-564 1074l-6 -2v-1072h-203z" />
<glyph unicode="O" horiz-adv-x="1218" d="M98 527v400q0 258 137 404t368 146q235 0 375.5 -145.5t140.5 -404.5v-400q0 -259 -140 -403.5t-375 -144.5q-232 0 -369 144.5t-137 403.5zM300 527q0 -192 79 -291t225 -99q151 0 232 98.5t81 291.5v403q0 190 -81.5 288.5t-232.5 98.5q-146 0 -224.5 -98.5 t-78.5 -288.5v-403z" />
<glyph unicode="P" horiz-adv-x="1130" d="M139 0v1456h473q207 0 324.5 -121.5t117.5 -319.5q0 -199 -117.5 -320t-324.5 -121h-270v-574h-203zM342 730h270q118 0 179 80.5t61 202.5q0 123 -60.5 205t-179.5 82h-270v-570z" />
<glyph unicode="Q" horiz-adv-x="1244" d="M98 527v400q0 258 137 404t368 146q235 0 375.5 -145.5t140.5 -404.5v-400q0 -108 -26 -197.5t-74 -157.5l182 -201l-135 -117l-180 196q-59 -36 -130 -53.5t-152 -17.5q-232 0 -369 144.5t-137 403.5zM300 527q0 -192 79 -291t225 -99q151 0 232 98.5t81 291.5v403 q0 190 -81.5 288.5t-232.5 98.5q-146 0 -224.5 -98.5t-78.5 -288.5v-403z" />
<glyph unicode="R" horiz-adv-x="1138" d="M138 0v1455h429q210 0 324.5 -107t114.5 -307q0 -114 -53.5 -199.5t-153.5 -132.5q112 -38 161.5 -126t49.5 -218v-127q0 -67 13 -125t46 -90v-23h-209q-34 33 -44.5 100.5t-10.5 139.5v123q0 122 -56.5 193t-156.5 71h-251v-627h-203zM341 782h216q126 0 186 66.5 t60 188.5q0 125 -58.5 194t-177.5 69h-226v-518z" />
<glyph unicode="S" horiz-adv-x="1094" d="M91 420l2 6h196q0 -148 78.5 -221t194.5 -73q113 0 177 63.5t64 170.5q0 100 -57 164.5t-201 117.5q-205 64 -315 165t-110 269q0 172 121.5 283.5t311.5 111.5q202 0 324 -124q118 -120 118 -299v-12l-2 -6h-195q0 128 -68 207t-179 79q-108 0 -167.5 -68t-59.5 -170 q0 -95 63 -157t212 -117q199 -65 303 -170t104 -272q0 -178 -122.5 -283.5t-321.5 -105.5q-192 0 -334 114q-137 110 -137 313v14z" />
<glyph unicode="T" horiz-adv-x="1045" d="M37 1300v156h973v-156h-386v-1300h-204v1300h-383z" />
<glyph unicode="U" horiz-adv-x="1213" d="M123 493v963h203v-963q0 -169 76.5 -264.5t200.5 -95.5q128 0 206.5 95t78.5 265v963h204v-963q0 -242 -136 -378t-353 -136q-213 0 -346.5 136.5t-133.5 377.5z" />
<glyph unicode="V" horiz-adv-x="1127" d="M20 1456h216l303 -1122l21 -89h6l21 88l303 1123h217l-445 -1456h-198z" />
<glyph unicode="W" horiz-adv-x="1553" d="M32 1456h214l190 -1033h6l245 1033h177l247 -1035h6l189 1035h213l-299 -1456h-187l-254 1033h-6l-255 -1033h-187z" />
<glyph unicode="X" horiz-adv-x="1127" d="M47 0l396 735l-386 721h238l265 -569h6l267 569h240l-386 -721l402 -735h-244l-276 582h-6l-275 -582h-241z" />
<glyph unicode="Y" horiz-adv-x="1127" d="M28 1456h226l305 -710h6l304 710h228l-437 -932v-524h-203v539z" />
<glyph unicode="Z" horiz-adv-x="1005" d="M78 0v125l613 1176h-607v155h825v-121l-614 -1181h635v-154h-852z" />
<glyph unicode="[" horiz-adv-x="507" d="M128 -319v1991h358v-153h-152v-1686h152v-152h-358z" />
<glyph unicode="\" horiz-adv-x="745" d="M25 1456h197l523 -1581h-198z" />
<glyph unicode="]" horiz-adv-x="507" d="M15 -167h153v1686h-153v153h359v-1991h-359v152z" />
<glyph unicode="^" horiz-adv-x="767" d="M53 729l257 727h146l256 -727h-171l-146 444l-11 52h-6l-11 -52l-142 -444h-172z" />
<glyph unicode="_" horiz-adv-x="802" d="M8 0h784v-152h-784v152z" />
<glyph unicode="`" horiz-adv-x="596" d="M70 1513l2 5h235l172 -266h-177z" />
<glyph unicode="a" horiz-adv-x="967" d="M75 300q0 153 107.5 241t299.5 88h166v111q0 99 -44 154.5t-126 55.5q-74 0 -117.5 -48t-43.5 -123l-194 -1l-2 6v14q0 118 98 208q104 96 272 96q161 0 261 -94.5t100 -269.5v-502q0 -62 8 -120.5t25 -115.5h-206q-13 49 -20.5 87.5t-9.5 76.5q-43 -80 -113.5 -132.5 t-160.5 -52.5q-145 0 -222.5 86t-77.5 235zM279 300q0 -75 36 -120t102 -45q83 0 147 51.5t84 124.5v192h-169q-94 0 -147 -59.5t-53 -143.5z" />
<glyph unicode="b" d="M117 0v1560h204v-595q43 66 104 101.5t142 35.5q174 0 268.5 -156.5t94.5 -417.5v-21q0 -240 -94.5 -384t-267.5 -144q-88 0 -153.5 39.5t-108.5 115.5l-22 -134h-167zM321 280q27 -69 75.5 -106.5t121.5 -37.5q109 0 158.5 99.5t49.5 271.5v21q0 188 -50 302t-160 114 q-71 0 -119 -41t-76 -111v-512z" />
<glyph unicode="c" horiz-adv-x="927" d="M75 521v38q0 236 109 389.5t309 153.5q161 0 263 -110q99 -106 99 -274v-10l-2 -5h-184q0 108 -48.5 175.5t-127.5 67.5q-114 0 -164.5 -110t-50.5 -277v-38q0 -170 50 -279t165 -109q75 0 125.5 58t50.5 157h183l2 -6v-11q0 -146 -103 -247q-107 -105 -258 -105 q-200 0 -309 152.5t-109 389.5z" />
<glyph unicode="d" d="M79 507v21q0 260 95 417t267 157q77 0 138 -34.5t105 -99.5v592h203v-1560h-168l-21 130q-45 -74 -110 -112.5t-149 -38.5q-171 0 -265.5 144.5t-94.5 383.5zM281 507q0 -170 51 -270.5t159 -100.5q68 0 115.5 36t77.5 102v524q-30 67 -78 106.5t-114 39.5 q-108 0 -159.5 -115.5t-51.5 -300.5v-21z" />
<glyph unicode="e" horiz-adv-x="933" d="M77 512v47q0 238 114 390.5t298 152.5q185 0 281.5 -131t96.5 -352v-114h-587q0 -166 59.5 -269t182.5 -103q85 0 148 26.5t116 77.5l66 -126q-54 -56 -142.5 -94t-201.5 -38q-202 0 -316.5 148t-114.5 385zM284 649h383v23q0 122 -43.5 198t-134.5 76q-88 0 -140 -81.5 t-65 -215.5z" />
<glyph unicode="f" horiz-adv-x="609" d="M42 937v145h143v139q0 172 83.5 266t233.5 94q30 0 61.5 -5.5t68.5 -15.5l-19 -149q-19 5 -40 8t-46 3q-68 0 -103.5 -52t-35.5 -149v-139h179v-145h-179v-937h-203v937h-143z" />
<glyph unicode="g" d="M83 507v21q0 260 95 417t268 157q84 0 148.5 -40.5t108.5 -115.5l19 136h170v-1084q0 -208 -111 -321.5t-313 -113.5q-69 0 -147.5 21t-141.5 57l33 152q55 -31 119.5 -48.5t134.5 -17.5q114 0 168 67.5t54 204.5v107q-44 -63 -104.5 -95t-139.5 -32q-171 0 -266 144.5 t-95 383.5zM287 507q0 -171 50 -271t159 -100q68 0 115.5 35t76.5 99v532q-29 66 -76.5 104t-114.5 38q-108 0 -159 -115.5t-51 -300.5v-21z" />
<glyph unicode="h" d="M114 0v1560h204v-623q46 78 113 121.5t150 43.5q147 0 230 -108t83 -332v-662h-204v664q0 149 -43 214.5t-127 65.5q-70 0 -120.5 -34t-81.5 -95v-815h-204z" />
<glyph unicode="i" horiz-adv-x="465" d="M130 0v1082h204v-1082h-204zM130 1366v194h204v-194h-204z" />
<glyph unicode="j" horiz-adv-x="470" d="M-68 -419l12 155q16 -6 37 -10t39 -4q55 0 87 50.5t32 153.5v1156h203v-1156q0 -174 -80 -268.5t-222 -94.5q-30 0 -54.5 4.5t-53.5 13.5zM133 1369v191h204v-191h-204z" />
<glyph unicode="k" horiz-adv-x="933" d="M118 0v1560h203v-909h71l260 431h239l-331 -492l367 -590h-237l-293 496h-76v-496h-203z" />
<glyph unicode="l" horiz-adv-x="465" d="M130 0v1560h204v-1560h-204z" />
<glyph unicode="m" horiz-adv-x="1547" d="M116 0v1082h187l11 -147q45 80 114.5 123.5t161.5 43.5q90 0 156 -49.5t99 -150.5q43 94 114.5 147t168.5 53q141 0 221.5 -114.5t80.5 -348.5v-639h-204v640q0 169 -42 236.5t-125 67.5q-70 0 -117.5 -52t-69.5 -137q1 -18 2 -37.5t1 -39.5v-678h-203v640 q0 163 -43 233.5t-125 70.5q-66 0 -112 -36t-72 -99v-809h-204z" />
<glyph unicode="n" d="M115 0v1082h186l12 -161q46 86 116 133.5t159 47.5q144 0 224.5 -106t80.5 -330v-666h-203v665q0 153 -42.5 216t-128.5 63q-70 0 -120 -36.5t-80 -100.5v-807h-204z" />
<glyph unicode="o" d="M76 526v27q0 241 114 395t313 154t313.5 -154t114.5 -395v-27q0 -242 -114 -394.5t-312 -152.5q-201 0 -315 152.5t-114 394.5zM280 526q0 -173 55.5 -283t169.5 -110q111 0 166.5 110.5t55.5 282.5v27q0 170 -56 281.5t-168 111.5t-167.5 -111.5t-55.5 -281.5v-27z" />
<glyph unicode="p" d="M117 -416v1498h173l19 -130q44 73 108 111.5t149 38.5q172 0 267.5 -157t95.5 -417v-21q0 -240 -95.5 -384t-266.5 -144q-80 0 -141.5 31.5t-104.5 92.5v-519h-204zM321 260q28 -61 75 -94t116 -33q107 0 160 102t53 272v21q0 184 -53.5 300t-160.5 116q-68 0 -115 -37.5 t-75 -101.5v-545z" />
<glyph unicode="q" d="M79 507v21q0 260 95 417t267 157q82 0 145 -38t107 -108l22 126h167v-1498h-204v514q-43 -59 -102.5 -89t-136.5 -30q-171 0 -265.5 144.5t-94.5 383.5zM281 507q0 -171 51 -272.5t159 -101.5q65 0 111 32.5t76 92.5v557q-29 61 -75.5 96t-110.5 35q-108 0 -159.5 -116.5 t-51.5 -301.5v-21z" />
<glyph unicode="r" horiz-adv-x="630" d="M117 0v1082h187l14 -160q36 85 92 132.5t129 47.5q19 0 35.5 -3.5t29.5 -8.5l-23 -177l-88 5q-64 0 -106.5 -38.5t-65.5 -108.5v-771h-204z" />
<glyph unicode="s" horiz-adv-x="902" d="M69 318l2 6h189q4 -105 59.5 -151.5t138.5 -46.5q81 0 126.5 41.5t45.5 105.5q0 63 -42 105.5t-161 95.5q-167 63 -250 137t-83 190q0 125 100.5 213t261.5 88q167 0 269 -96q98 -93 98 -224v-10l-2 -6h-196q0 77 -45.5 132.5t-123.5 55.5t-121.5 -43.5t-43.5 -101.5 q0 -62 37.5 -97.5t160.5 -91.5q170 -60 255.5 -139t85.5 -198q0 -135 -103.5 -219.5t-271.5 -84.5q-183 -1 -287 101q-100 97 -99 226v12z" />
<glyph unicode="t" horiz-adv-x="614" d="M31 937v145h143v269h204v-269h169v-145h-169v-644q0 -84 25.5 -119.5t67.5 -35.5q17 0 32 3t35 9l21 -140q-29 -14 -64.5 -22.5t-73.5 -8.5q-117 0 -182 75.5t-65 238.5v644h-143z" />
<glyph unicode="u" d="M112 451v631h204v-633q0 -174 40 -243.5t122 -69.5q75 0 127.5 35t82.5 100v811h204v-1082h-173l-20 158q-44 -86 -112 -132.5t-158 -46.5q-149 0 -233 115t-84 357z" />
<glyph unicode="v" horiz-adv-x="903" d="M32 1082h212l191 -757l17 -85h6l18 85l189 757h210l-330 -1082h-181z" />
<glyph unicode="w" horiz-adv-x="1328" d="M40 1082h203l142 -721h6l197 721h146l200 -729h6l138 729h204l-252 -1082h-168l-200 702h-6l-194 -702h-169z" />
<glyph unicode="x" horiz-adv-x="903" d="M35 0l301 548l-292 534h230l172 -395h6l174 395h234l-293 -534l303 -548h-232l-183 408h-6l-182 -408h-232z" />
<glyph unicode="y" horiz-adv-x="903" d="M20 1082h222l183 -709l16 -73h6l212 782h223l-387 -1250q-37 -111 -103 -190t-190 -79q-25 0 -54 5.5t-57 12.5l23 150q10 -2 29.5 -4t30.5 -2q60 0 95 50.5t55 119.5l37 112z" />
<glyph unicode="z" horiz-adv-x="903" d="M79 0v128l499 797h-488v157h721v-126l-504 -802h527v-154h-755z" />
<glyph unicode="{" horiz-adv-x="601" d="M54 535v146q86 0 127 61.5t41 174.5v215q0 171 70 290.5t237 174.5l41 -114q-86 -36 -121.5 -126.5t-35.5 -224.5v-215q0 -106 -40.5 -186.5t-122.5 -122.5q82 -44 122.5 -125t40.5 -186v-212q0 -133 36 -222.5t121 -126.5l-41 -115q-166 55 -236.5 174.5t-70.5 289.5 v212q0 112 -41 175t-127 63z" />
<glyph unicode="|" horiz-adv-x="449" d="M132 -270v1726h177v-1726h-177z" />
<glyph unicode="}" horiz-adv-x="601" d="M29 -264q85 37 121.5 126.5t36.5 222.5v212q0 108 41.5 188.5t127.5 121.5q-86 40 -127.5 120.5t-41.5 189.5v215q0 133 -36.5 223.5t-120.5 127.5l39 114q166 -55 236.5 -174.5t70.5 -290.5v-215q0 -112 41 -174t127 -62v-146q-85 0 -126.5 -63t-41.5 -175v-212 q0 -170 -70.5 -289.5t-236.5 -174.5z" />
<glyph unicode="~" horiz-adv-x="1182" d="M108 466q0 141 73.5 239t188.5 98q72 0 136.5 -35.5t135.5 -105.5q45 -52 82.5 -75t79.5 -23q51 0 88 58t37 143l144 -20q0 -142 -74.5 -242.5t-187.5 -100.5q-75 0 -137 34t-134 108q-49 50 -86 74t-78 24q-52 0 -88 -56t-36 -140z" />
<glyph unicode="&#xa1;" horiz-adv-x="476" d="M130 869v213h206v-213h-206zM131 -374v970h204v-970h-204z" />
<glyph unicode="&#xa2;" horiz-adv-x="1004" d="M75 521v38q0 215 92 364t264 174v221h164v-229q121 -33 193 -135.5t72 -250.5h-191q0 108 -48.5 175.5t-127.5 67.5q-114 0 -164.5 -110t-50.5 -277v-38q0 -170 50 -279t165 -109q75 0 125.5 58t50.5 157h191q0 -128 -75 -224.5t-190 -129.5v-239h-164v229 q-172 23 -264 171.5t-92 365.5z" />
<glyph unicode="&#xa3;" horiz-adv-x="1048" d="M76 618v154h140l-9 264q0 205 99.5 323t266.5 118q177 0 273.5 -107t93.5 -282l-3 -6h-195q0 123 -47.5 181t-121.5 58q-75 0 -118.5 -75t-43.5 -210l9 -264h334v-154h-329l5 -141q0 -93 -24.5 -177.5t-69.5 -145.5h640v-154h-845v154h8q43 13 65 113t22 206l-5 145h-145 z" />
<glyph unicode="&#xa4;" horiz-adv-x="1309" d="M90 92l131 149q-48 78 -73.5 171t-25.5 196q0 106 27 202t79 176l-138 158l117 120l132 -150q67 57 148.5 88.5t170.5 31.5q88 0 169.5 -32t149.5 -90l134 153l117 -121l-141 -161q49 -79 76.5 -174.5t27.5 -200.5q0 -101 -25.5 -193.5t-71.5 -170.5l134 -152l-117 -119 l-123 140q-70 -64 -154.5 -98.5t-175.5 -34.5q-93 0 -177 33.5t-153 97.5l-121 -137zM275 608q0 -198 111.5 -336.5t271.5 -138.5q157 0 268.5 138.5t111.5 336.5q0 196 -111.5 334t-268.5 138q-160 0 -271.5 -138t-111.5 -334z" />
<glyph unicode="&#xa5;" horiz-adv-x="1084" d="M30 1456h227l280 -635h6l278 635h227l-355 -730h252v-122h-307v-170h307v-120h-307v-314h-203v314h-311v120h311v170h-311v122h262z" />
<glyph unicode="&#xa6;" horiz-adv-x="445" d="M125 -270v784h190v-784h-190zM125 698v758h190v-758h-190z" />
<glyph unicode="&#xa7;" horiz-adv-x="1106" d="M89 546q0 92 42.5 161t122.5 110q-68 51 -101.5 121t-33.5 171q0 166 118 267t315 101q204 0 318.5 -111.5t110.5 -312.5l-2 -6h-195q0 118 -61.5 196t-170.5 78q-115 0 -172 -59t-57 -151q0 -97 53.5 -147.5t220.5 -106.5q212 -66 310 -154.5t98 -258.5q0 -93 -44 -162 t-124 -108q69 -51 104 -121t35 -171q0 -172 -117.5 -269t-315.5 -97q-194 0 -325 101.5t-126 320.5l2 6l195 2q0 -144 74 -209.5t180 -65.5q107 0 168 58.5t61 150.5q0 90 -57.5 140.5t-218.5 108.5q-209 64 -308 154.5t-99 262.5zM292 556q0 -101 54 -152.5t223 -111.5 l58 -20t61 -21q55 21 85.5 69.5t30.5 113.5q0 92 -59.5 146.5t-221.5 116.5q-35 10 -66 20.5t-60 22.5q-53 -22 -79 -70t-26 -114z" />
<glyph unicode="&#xa8;" horiz-adv-x="950" d="M152 1271v185h209v-185h-209zM588 1271v185h209v-185h-209z" />
<glyph unicode="&#xa9;" horiz-adv-x="1462" d="M88 729q0 315 186 531t453 216q265 0 451.5 -216t186.5 -531q0 -316 -187 -533t-451 -217q-267 0 -453 217t-186 533zM191 729q0 -271 156 -457t380 -186q221 0 377.5 186t156.5 457q0 268 -156.5 453t-377.5 185q-224 0 -380 -185t-156 -453zM404 669v119q0 173 84 280 t227 107q139 0 217.5 -79.5t75.5 -228.5l-3 -6h-122q0 102 -42 150t-126 48q-88 0 -135.5 -75t-47.5 -195v-120q0 -123 47.5 -197.5t135.5 -74.5q84 0 125.5 47t41.5 152h122l3 -6q3 -150 -75 -229t-217 -79q-143 0 -227 106.5t-84 280.5z" />
<glyph unicode="&#xaa;" horiz-adv-x="798" d="M108 920q0 108 72 167t210 59h123v56q0 71 -27 110t-78 39q-60 0 -92.5 -31.5t-32.5 -88.5l-133 12l-2 6q-5 98 67.5 163t192.5 65q114 0 181 -71t67 -205v-314q0 -51 5 -95t17 -86h-145q-7 23 -11.5 48t-6.5 52q-28 -50 -77 -82t-116 -32q-102 0 -158 61.5t-56 166.5z M251 924q0 -53 25.5 -81.5t79.5 -28.5q46 0 93.5 33t63.5 73v123h-122q-66 0 -103 -34.5t-37 -84.5z" />
<glyph unicode="&#xab;" horiz-adv-x="867" d="M88 508v19l247 384h140l-214 -394l214 -394h-140zM423 508v19l247 384h140l-214 -394l214 -394h-140z" />
<glyph unicode="&#xac;" horiz-adv-x="985" d="M116 649v143h714v-414h-162v271h-552z" />
<glyph unicode="&#xad;" horiz-adv-x="787" d="M137 542v155h507v-155h-507z" />
<glyph unicode="&#xae;" horiz-adv-x="1462" d="M87 729q0 315 186 531t452 216q265 0 452 -216t187 -531q0 -316 -187 -533t-452 -217q-266 0 -452 217t-186 533zM191 729q0 -271 156 -457t378 -186t378.5 186t156.5 457q0 268 -156 453t-379 185q-222 0 -378 -185t-156 -453zM467 316v850h248q136 0 212.5 -65.5 t76.5 -189.5q0 -63 -30 -109.5t-87 -77.5q59 -27 86 -80.5t27 -128.5v-56q0 -42 3 -74.5t12 -52.5v-16h-130q-8 21 -10 61.5t-2 82.5v54q0 76 -31 111t-102 35h-147v-344h-126zM593 776h134q63 0 107 35t44 97q0 78 -36.5 110.5t-126.5 32.5h-122v-275z" />
<glyph unicode="&#xaf;" horiz-adv-x="889" d="M125 1324v132h644v-132h-644z" />
<glyph unicode="&#xb0;" horiz-adv-x="715" d="M124 1216q0 106 69 183.5t166 77.5q95 0 163.5 -77.5t68.5 -183.5q0 -108 -68 -182.5t-164 -74.5q-98 0 -166.5 74.5t-68.5 182.5zM241 1216q0 -59 34 -98.5t84 -39.5q49 0 82 39t33 99t-33.5 100.5t-81.5 40.5q-50 0 -84 -40.5t-34 -100.5z" />
<glyph unicode="&#xb1;" horiz-adv-x="999" d="M90 716v157h327v407h182v-407h314v-157h-314v-414h-182v414h-327zM109 5v155h718v-155h-718z" />
<glyph unicode="&#xb2;" horiz-adv-x="753" d="M105 1236q-5 100 68.5 171.5t196.5 71.5q119 0 185 -63t66 -179q0 -78 -44 -140.5t-143 -159.5l-125 -144l2 -5h316v-121h-520v121l265 267q56 60 73.5 99t17.5 84q0 53 -23.5 85.5t-71.5 32.5q-54 0 -83 -35t-29 -91h-149z" />
<glyph unicode="&#xb3;" horiz-adv-x="756" d="M97 885l2 6h149q0 -52 31 -83.5t86 -31.5q56 0 89.5 31t33.5 85q0 64 -31.5 94.5t-93.5 30.5h-103v113h103q58 0 85.5 30t27.5 85q0 48 -28 79t-84 31q-48 0 -76.5 -27.5t-28.5 -72.5h-149l-2 6q-6 97 68 157t186 60q126 0 199.5 -59.5t73.5 -168.5q0 -56 -31 -102 t-85 -72q61 -23 94 -70.5t33 -117.5q0 -110 -76.5 -171.5t-203.5 -61.5q-117 0 -195.5 59t-73.5 171z" />
<glyph unicode="&#xb4;" horiz-adv-x="620" d="M116 1252l176 266h233l3 -5l-242 -261h-170z" />
<glyph unicode="&#xb5;" horiz-adv-x="1055" d="M133 -416v1498h202v-626q0 -185 45 -253.5t129 -68.5q78 0 127 37.5t75 109.5v801h202v-1082h-186l-6 90q-39 -54 -92 -82.5t-120 -28.5q-54 0 -97.5 15.5t-76.5 49.5v-460h-202z" />
<glyph unicode="&#xb6;" horiz-adv-x="907" d="M62 988q0 207 111.5 337.5t311.5 130.5h277v-1456h-203v520h-74q-200 0 -311.5 129.5t-111.5 338.5z" />
<glyph unicode="&#xb7;" horiz-adv-x="508" d="M145 606v214h206v-214h-206z" />
<glyph unicode="&#xb8;" horiz-adv-x="468" d="M100 -132l26 134h152l-11 -58q57 -10 94.5 -50.5t37.5 -121.5q0 -98 -73.5 -156t-209.5 -58l-5 113q54 0 87.5 25t33.5 76q0 50 -30 69.5t-102 26.5z" />
<glyph unicode="&#xb9;" horiz-adv-x="495" d="M80 1328v126l271 23v-812h-160v666z" />
<glyph unicode="&#xba;" horiz-adv-x="816" d="M110 1025v117q0 148 80 241.5t215 93.5t215.5 -93.5t80.5 -241.5v-117q0 -149 -80 -241.5t-214 -92.5q-136 0 -216.5 92.5t-80.5 241.5zM254 1025q0 -95 38.5 -153t114.5 -58q73 0 112 58t39 153v117q0 92 -39.5 150.5t-113.5 58.5t-112.5 -58.5t-38.5 -150.5v-117z" />
<glyph unicode="&#xbb;" horiz-adv-x="866" d="M119 245l138 305l-138 304h141l160 -209h51l15 -87l3 -3l-1 -6l1 -5l-3 -4l-15 -84l-50 -1l-161 -210h-141zM465 245l138 305l-138 304h141l160 -209h51l15 -87l3 -3l-1 -6l1 -5l-3 -4l-15 -84l-50 -1l-161 -210h-141z" />
<glyph unicode="&#xbc;" horiz-adv-x="1337" d="M169 1327v126l271 23v-812h-160v666zM324 184l612 1138l105 -63l-612 -1138zM770 250l364 551h159v-524h100v-122h-100v-155h-158v155h-357zM935 277h200v321l-6 1l-11 -19z" />
<glyph unicode="&#xbd;" horiz-adv-x="1400" d="M169 1327v126l271 23v-812h-160v666zM337 184l612 1138l105 -63l-612 -1138zM916 569q-5 100 68.5 171.5t196.5 71.5q119 0 185 -63t66 -179q0 -78 -44 -140.5t-143 -159.5l-125 -144l2 -5h316v-121h-520v121l265 267q56 60 73.5 99t17.5 84q0 53 -23.5 85.5t-71.5 32.5 q-54 0 -83 -35t-29 -91h-149z" />
<glyph unicode="&#xbe;" horiz-adv-x="1510" d="M113 886l2 6h149q0 -52 31 -83.5t86 -31.5q56 0 89.5 31t33.5 85q0 64 -31.5 94.5t-93.5 30.5h-103v113h103q58 0 85.5 30t27.5 85q0 48 -28 79t-84 31q-48 0 -76.5 -27.5t-28.5 -72.5h-149l-2 6q-6 97 68 157t186 60q126 0 199.5 -59.5t73.5 -168.5q0 -56 -31 -102 t-85 -72q61 -23 94 -70.5t33 -117.5q0 -110 -76.5 -171.5t-203.5 -61.5q-117 0 -195.5 59t-73.5 171zM507 184l612 1138l105 -63l-612 -1138zM959 250l364 551h159v-524h100v-122h-100v-155h-158v155h-357zM1124 277h200v321l-6 1l-11 -19z" />
<glyph unicode="&#xbf;" horiz-adv-x="889" d="M87 -3q0 128 60.5 234t162.5 209q49 50 62.5 96.5t13.5 136.5h204q-2 -134 -29.5 -192t-121.5 -150q-74 -92 -111.5 -163.5t-37.5 -167.5q0 -110 46 -171.5t133 -61.5q72 0 122.5 56t51.5 157h196l2 -6q2 -172 -103 -270t-269 -98q-180 0 -281 104.5t-101 286.5zM382 883 v199h209v-199h-209z" />
<glyph unicode="&#xc0;" horiz-adv-x="1127" d="M32 0l437 1456h197l433 -1456h-211l-105 368h-435l-105 -368h-211zM252 1863l2 5h235l172 -266h-177zM394 529h344l-168 592h-6z" />
<glyph unicode="&#xc1;" horiz-adv-x="1127" d="M32 0l437 1456h197l433 -1456h-211l-105 368h-435l-105 -368h-211zM394 529h344l-168 592h-6zM463 1598l176 266h233l3 -5l-242 -261h-170z" />
<glyph unicode="&#xc2;" horiz-adv-x="1127" d="M32 0l437 1456h197l433 -1456h-211l-105 368h-435l-105 -368h-211zM277 1599v23l225 232h123l228 -233v-22h-164l-126 151l-124 -151h-162zM394 529h344l-168 592h-6z" />
<glyph unicode="&#xc3;" horiz-adv-x="1127" d="M32 0l437 1456h197l433 -1456h-211l-105 368h-435l-105 -368h-211zM252 1630q0 90 50.5 155t127.5 65q50 0 127 -49.5t121 -49.5q33 0 57.5 34t24.5 84l110 -31q0 -92 -50.5 -155t-127.5 -63q-62 0 -133 49t-115 49q-35 0 -58 -33.5t-23 -82.5zM394 529h344l-168 592h-6z " />
<glyph unicode="&#xc4;" horiz-adv-x="1127" d="M32 0l437 1456h197l433 -1456h-211l-105 368h-435l-105 -368h-211zM242 1617v185h209v-185h-209zM394 529h344l-168 592h-6zM678 1617v185h209v-185h-209z" />
<glyph unicode="&#xc5;" horiz-adv-x="1127" d="M32 0l437 1456h197l433 -1456h-211l-105 368h-435l-105 -368h-211zM394 529h344l-168 592h-6zM404 1736q0 69 46.5 116.5t113.5 47.5q65 0 110.5 -47.5t45.5 -116.5q0 -70 -45.5 -115t-110.5 -45q-67 0 -113.5 45.5t-46.5 114.5zM496 1736q0 -33 19.5 -54t48.5 -21 q27 0 45 21t18 54t-18 55t-45 22q-29 0 -48.5 -22t-19.5 -55z" />
<glyph unicode="&#xc6;" horiz-adv-x="1699" d="M20 0l714 1456h844v-157h-555l17 -467h468v-155h-462l19 -522h566v-155h-764l-13 361h-425l-167 -361h-242zM508 531h340l-25 667l-5 1z" />
<glyph unicode="&#xc7;" horiz-adv-x="1133" d="M101 525v404q0 258 131 403t352 145q223 0 348 -115.5t121 -337.5l-2 -6h-195q0 156 -68 229.5t-204 73.5q-134 0 -207 -100.5t-73 -288.5v-407q0 -190 75 -291t212 -101q132 0 198 72.5t66 232.5h195l2 -6q4 -215 -120 -334t-341 -119q-224 0 -357 143.5t-133 402.5z M485 -138l26 134h152l-11 -58q57 -10 94.5 -50.5t37.5 -121.5q0 -98 -73.5 -156t-209.5 -58l-5 113q54 0 87.5 25t33.5 76q0 50 -30 69.5t-102 26.5z" />
<glyph unicode="&#xc8;" horiz-adv-x="989" d="M139 0v1456h780v-156h-577v-469h494v-155h-494v-522h582v-154h-785zM220 1863l2 5h235l172 -266h-177z" />
<glyph unicode="&#xc9;" horiz-adv-x="989" d="M139 0v1456h780v-156h-577v-469h494v-155h-494v-522h582v-154h-785zM431 1598l176 266h233l3 -5l-242 -261h-170z" />
<glyph unicode="&#xca;" horiz-adv-x="989" d="M139 0v1456h780v-156h-577v-469h494v-155h-494v-522h582v-154h-785zM245 1599v23l225 232h123l228 -233v-22h-164l-126 151l-124 -151h-162z" />
<glyph unicode="&#xcb;" horiz-adv-x="989" d="M139 0v1456h780v-156h-577v-469h494v-155h-494v-522h582v-154h-785zM210 1617v185h209v-185h-209zM646 1617v185h209v-185h-209z" />
<glyph unicode="&#xcc;" horiz-adv-x="518" d="M-52 1863l2 5h235l172 -266h-177zM157 0v1456h203v-1456h-203z" />
<glyph unicode="&#xcd;" horiz-adv-x="518" d="M157 0v1456h203v-1456h-203zM158 1598l176 266h233l3 -5l-242 -261h-170z" />
<glyph unicode="&#xce;" horiz-adv-x="518" d="M-27 1599v23l225 232h123l228 -233v-22h-164l-126 151l-124 -151h-162zM157 0v1456h203v-1456h-203z" />
<glyph unicode="&#xcf;" horiz-adv-x="518" d="M-62 1617v185h209v-185h-209zM157 0v1456h203v-1456h-203zM374 1617v185h209v-185h-209z" />
<glyph unicode="&#xd0;" horiz-adv-x="1191" d="M8 670v141h131v645h413q236 0 385.5 -175t149.5 -450v-207q0 -276 -149.5 -450t-385.5 -174h-413v670h-131zM342 154h210q150 0 240 131.5t90 338.5v209q0 204 -90 335.5t-240 131.5h-210v-489h229v-141h-229v-516z" />
<glyph unicode="&#xd1;" horiz-adv-x="1255" d="M139 0v1456h203l564 -1071l6 1v1070h204v-1456h-204l-564 1074l-6 -2v-1072h-203zM314 1630q0 90 50.5 155t127.5 65q50 0 127 -49.5t121 -49.5q33 0 57.5 34t24.5 84l110 -31q0 -92 -50.5 -155t-127.5 -63q-62 0 -133 49t-115 49q-35 0 -58 -33.5t-23 -82.5z" />
<glyph unicode="&#xd2;" horiz-adv-x="1218" d="M98 527v400q0 258 137 404t368 146q235 0 375.5 -145.5t140.5 -404.5v-400q0 -259 -140 -403.5t-375 -144.5q-232 0 -369 144.5t-137 403.5zM296 1884l2 5h235l172 -266h-177zM300 527q0 -192 79 -291t225 -99q151 0 232 98.5t81 291.5v403q0 190 -81.5 288.5 t-232.5 98.5q-146 0 -224.5 -98.5t-78.5 -288.5v-403z" />
<glyph unicode="&#xd3;" horiz-adv-x="1218" d="M98 527v400q0 258 137 404t368 146q235 0 375.5 -145.5t140.5 -404.5v-400q0 -259 -140 -403.5t-375 -144.5q-232 0 -369 144.5t-137 403.5zM300 527q0 -192 79 -291t225 -99q151 0 232 98.5t81 291.5v403q0 190 -81.5 288.5t-232.5 98.5q-146 0 -224.5 -98.5 t-78.5 -288.5v-403zM507 1619l176 266h233l3 -5l-242 -261h-170z" />
<glyph unicode="&#xd4;" horiz-adv-x="1218" d="M98 527v400q0 258 137 404t368 146q235 0 375.5 -145.5t140.5 -404.5v-400q0 -259 -140 -403.5t-375 -144.5q-232 0 -369 144.5t-137 403.5zM300 527q0 -192 79 -291t225 -99q151 0 232 98.5t81 291.5v403q0 190 -81.5 288.5t-232.5 98.5q-146 0 -224.5 -98.5 t-78.5 -288.5v-403zM321 1620v23l225 232h123l228 -233v-22h-164l-126 151l-124 -151h-162z" />
<glyph unicode="&#xd5;" horiz-adv-x="1218" d="M98 527v400q0 258 137 404t368 146q235 0 375.5 -145.5t140.5 -404.5v-400q0 -259 -140 -403.5t-375 -144.5q-232 0 -369 144.5t-137 403.5zM296 1651q0 90 50.5 155t127.5 65q50 0 127 -49.5t121 -49.5q33 0 57.5 34t24.5 84l110 -31q0 -92 -50.5 -155t-127.5 -63 q-62 0 -133 49t-115 49q-35 0 -58 -33.5t-23 -82.5zM300 527q0 -192 79 -291t225 -99q151 0 232 98.5t81 291.5v403q0 190 -81.5 288.5t-232.5 98.5q-146 0 -224.5 -98.5t-78.5 -288.5v-403z" />
<glyph unicode="&#xd6;" horiz-adv-x="1218" d="M98 527v400q0 258 137 404t368 146q235 0 375.5 -145.5t140.5 -404.5v-400q0 -259 -140 -403.5t-375 -144.5q-232 0 -369 144.5t-137 403.5zM286 1638v185h209v-185h-209zM300 527q0 -192 79 -291t225 -99q151 0 232 98.5t81 291.5v403q0 190 -81.5 288.5t-232.5 98.5 q-146 0 -224.5 -98.5t-78.5 -288.5v-403zM722 1638v185h209v-185h-209z" />
<glyph unicode="&#xd7;" horiz-adv-x="991" d="M76 344l299 339l-296 336l125 119l286 -325l286 325l125 -119l-296 -336l299 -339l-124 -119l-290 328l-289 -328z" />
<glyph unicode="&#xd8;" horiz-adv-x="1219" d="M98 527v400q0 258 137 404t368 146q88 0 165.5 -22.5t140.5 -64.5l63 122h121l-100 -196q60 -71 93 -169.5t33 -219.5v-400q0 -259 -140 -403.5t-375 -144.5q-75 0 -141 15.5t-121 46.5l-67 -131h-121l99 195q-76 70 -115.5 177t-39.5 245zM300 527q0 -74 11 -132.5 t33 -98.5l6 -1l477 933q-41 44 -97 66.5t-127 22.5q-146 0 -224.5 -98.5t-78.5 -288.5v-403zM420 194q36 -29 82 -43t102 -14q151 0 232 98.5t81 291.5v403q0 54 -7 98.5t-19 76.5l-5 1z" />
<glyph unicode="&#xd9;" horiz-adv-x="1213" d="M123 493v963h203v-963q0 -169 76.5 -264.5t200.5 -95.5q128 0 206.5 95t78.5 265v963h204v-963q0 -242 -136 -378t-353 -136q-213 0 -346.5 136.5t-133.5 377.5zM298 1863l2 5h235l172 -266h-177z" />
<glyph unicode="&#xda;" horiz-adv-x="1213" d="M123 493v963h203v-963q0 -169 76.5 -264.5t200.5 -95.5q128 0 206.5 95t78.5 265v963h204v-963q0 -242 -136 -378t-353 -136q-213 0 -346.5 136.5t-133.5 377.5zM509 1598l176 266h233l3 -5l-242 -261h-170z" />
<glyph unicode="&#xdb;" horiz-adv-x="1213" d="M123 493v963h203v-963q0 -169 76.5 -264.5t200.5 -95.5q128 0 206.5 95t78.5 265v963h204v-963q0 -242 -136 -378t-353 -136q-213 0 -346.5 136.5t-133.5 377.5zM323 1599v23l225 232h123l228 -233v-22h-164l-126 151l-124 -151h-162z" />
<glyph unicode="&#xdc;" horiz-adv-x="1213" d="M123 493v963h203v-963q0 -169 76.5 -264.5t200.5 -95.5q128 0 206.5 95t78.5 265v963h204v-963q0 -242 -136 -378t-353 -136q-213 0 -346.5 136.5t-133.5 377.5zM288 1617v185h209v-185h-209zM724 1617v185h209v-185h-209z" />
<glyph unicode="&#xdd;" horiz-adv-x="1127" d="M28 1456h226l305 -710h6l304 710h228l-437 -932v-524h-203v539zM464 1594l176 266h233l3 -5l-242 -261h-170z" />
<glyph unicode="&#xde;" horiz-adv-x="1070" d="M135 0v1456h203v-290h217q208 0 324 -119t116 -309q0 -192 -116 -310.5t-324 -118.5h-217v-309h-203zM338 464h217q118 0 177 79t59 193t-59 194.5t-177 80.5h-217v-547z" />
<glyph unicode="&#xdf;" horiz-adv-x="1093" d="M125 0v1088q0 215 104.5 335t278.5 120q144 0 238 -86.5t94 -246.5q0 -111 -50 -215.5t-50 -173.5q0 -76 139.5 -218t139.5 -283q0 -170 -95 -255.5t-263 -85.5q-70 0 -142 20t-106 50l40 154q36 -28 89.5 -49.5t108.5 -21.5q80 0 122.5 49.5t42.5 131.5q0 86 -139.5 226 t-139.5 280q0 88 52.5 194.5t52.5 184.5q0 85 -42 138t-97 53q-79 0 -127.5 -79.5t-48.5 -223.5v-1086h-202z" />
<glyph unicode="&#xe0;" horiz-adv-x="967" d="M75 300q0 153 107.5 241t299.5 88h166v111q0 99 -44 154.5t-126 55.5q-74 0 -117.5 -48t-43.5 -123l-194 -1l-2 6q-6 126 98 222t272 96q161 0 261 -94.5t100 -269.5v-502q0 -62 8 -120.5t25 -115.5h-206q-13 49 -20.5 87.5t-9.5 76.5q-43 -80 -113.5 -132.5 t-160.5 -52.5q-145 0 -222.5 86t-77.5 235zM168 1541l2 5h235l172 -266h-177zM279 300q0 -75 36 -120t102 -45q83 0 147 51.5t84 124.5v192h-169q-94 0 -147 -59.5t-53 -143.5z" />
<glyph unicode="&#xe1;" horiz-adv-x="967" d="M75 300q0 153 107.5 241t299.5 88h166v111q0 99 -44 154.5t-126 55.5q-74 0 -117.5 -48t-43.5 -123l-194 -1l-2 6q-6 126 98 222t272 96q161 0 261 -94.5t100 -269.5v-502q0 -62 8 -120.5t25 -115.5h-206q-13 49 -20.5 87.5t-9.5 76.5q-43 -80 -113.5 -132.5 t-160.5 -52.5q-145 0 -222.5 86t-77.5 235zM279 300q0 -75 36 -120t102 -45q83 0 147 51.5t84 124.5v192h-169q-94 0 -147 -59.5t-53 -143.5zM379 1276l176 266h233l3 -5l-242 -261h-170z" />
<glyph unicode="&#xe2;" horiz-adv-x="967" d="M75 300q0 153 107.5 241t299.5 88h166v111q0 99 -44 154.5t-126 55.5q-74 0 -117.5 -48t-43.5 -123l-194 -1l-2 6q-6 126 98 222t272 96q161 0 261 -94.5t100 -269.5v-502q0 -62 8 -120.5t25 -115.5h-206q-13 49 -20.5 87.5t-9.5 76.5q-43 -80 -113.5 -132.5 t-160.5 -52.5q-145 0 -222.5 86t-77.5 235zM193 1277v23l225 232h123l228 -233v-22h-164l-126 151l-124 -151h-162zM279 300q0 -75 36 -120t102 -45q83 0 147 51.5t84 124.5v192h-169q-94 0 -147 -59.5t-53 -143.5z" />
<glyph unicode="&#xe3;" horiz-adv-x="967" d="M75 300q0 153 107.5 241t299.5 88h166v111q0 99 -44 154.5t-126 55.5q-74 0 -117.5 -48t-43.5 -123l-194 -1l-2 6q-6 126 98 222t272 96q161 0 261 -94.5t100 -269.5v-502q0 -62 8 -120.5t25 -115.5h-206q-13 49 -20.5 87.5t-9.5 76.5q-43 -80 -113.5 -132.5 t-160.5 -52.5q-145 0 -222.5 86t-77.5 235zM168 1308q0 90 50.5 155t127.5 65q50 0 127 -49.5t121 -49.5q33 0 57.5 34t24.5 84l110 -31q0 -92 -50.5 -155t-127.5 -63q-62 0 -133 49t-115 49q-35 0 -58 -33.5t-23 -82.5zM279 300q0 -75 36 -120t102 -45q83 0 147 51.5 t84 124.5v192h-169q-94 0 -147 -59.5t-53 -143.5z" />
<glyph unicode="&#xe4;" horiz-adv-x="967" d="M75 300q0 153 107.5 241t299.5 88h166v111q0 99 -44 154.5t-126 55.5q-74 0 -117.5 -48t-43.5 -123l-194 -1l-2 6q-6 126 98 222t272 96q161 0 261 -94.5t100 -269.5v-502q0 -62 8 -120.5t25 -115.5h-206q-13 49 -20.5 87.5t-9.5 76.5q-43 -80 -113.5 -132.5 t-160.5 -52.5q-145 0 -222.5 86t-77.5 235zM158 1295v185h209v-185h-209zM279 300q0 -75 36 -120t102 -45q83 0 147 51.5t84 124.5v192h-169q-94 0 -147 -59.5t-53 -143.5zM594 1295v185h209v-185h-209z" />
<glyph unicode="&#xe5;" horiz-adv-x="967" d="M75 300q0 153 107.5 241t299.5 88h166v111q0 99 -44 154.5t-126 55.5q-74 0 -117.5 -48t-43.5 -123l-194 -1l-2 6q-6 126 98 222t272 96q161 0 261 -94.5t100 -269.5v-502q0 -62 8 -120.5t25 -115.5h-206q-13 49 -20.5 87.5t-9.5 76.5q-43 -80 -113.5 -132.5 t-160.5 -52.5q-145 0 -222.5 86t-77.5 235zM279 300q0 -75 36 -120t102 -45q83 0 147 51.5t84 124.5v192h-169q-94 0 -147 -59.5t-53 -143.5zM320 1414q0 69 46.5 116.5t113.5 47.5q65 0 110.5 -47.5t45.5 -116.5q0 -70 -45.5 -115t-110.5 -45q-67 0 -113.5 45.5 t-46.5 114.5zM412 1414q0 -33 19.5 -54t48.5 -21q27 0 45 21t18 54t-18 55t-45 22q-29 0 -48.5 -22t-19.5 -55z" />
<glyph unicode="&#xe6;" horiz-adv-x="1545" d="M81 304q0 153 104 238t302 85h179v89q0 109 -40.5 169.5t-116.5 60.5q-82 0 -129 -54.5t-47 -134.5l-195 16l-2 6q-5 139 98.5 231t275.5 92q93 0 167 -34t121 -98q53 63 126 97.5t160 34.5q182 0 283.5 -128.5t101.5 -350.5v-124h-594q1 -166 62 -266t189 -100 q84 0 141.5 26.5t121.5 76.5l60 -132q-49 -48 -136 -86.5t-201 -38.5t-202 45.5t-144 129.5q-51 -75 -142 -125t-218 -50q-156 0 -240.5 87t-84.5 238zM284 300q0 -80 40.5 -126.5t120.5 -46.5q60 0 123.5 39.5t97.5 91.5v232h-177q-97 0 -151 -55t-54 -135zM878 639h390v30 q0 123 -45.5 200t-138.5 77t-144.5 -84t-61.5 -223z" />
<glyph unicode="&#xe7;" horiz-adv-x="927" d="M75 521v38q0 236 109 389.5t309 153.5q162 0 263.5 -109.5t98.5 -284.5l-2 -5h-184q0 108 -48.5 175.5t-127.5 67.5q-114 0 -164.5 -110t-50.5 -277v-38q0 -170 50 -279t165 -109q75 0 125.5 58t50.5 157h183l2 -6q4 -153 -103 -258t-258 -105q-200 0 -309 152.5 t-109 389.5zM381 -138l26 134h152l-11 -58q57 -10 94.5 -50.5t37.5 -121.5q0 -98 -73.5 -156t-209.5 -58l-5 113q54 0 87.5 25t33.5 76q0 50 -30 69.5t-102 26.5z" />
<glyph unicode="&#xe8;" horiz-adv-x="933" d="M77 512v47q0 238 114 390.5t298 152.5q185 0 281.5 -131t96.5 -352v-114h-587q0 -166 59.5 -269t182.5 -103q85 0 148 26.5t116 77.5l66 -126q-54 -56 -142.5 -94t-201.5 -38q-202 0 -316.5 148t-114.5 385zM160 1542l2 5h235l172 -266h-177zM284 649h383v23 q0 122 -43.5 198t-134.5 76q-88 0 -140 -81.5t-65 -215.5z" />
<glyph unicode="&#xe9;" horiz-adv-x="933" d="M77 512v47q0 238 114 390.5t298 152.5q185 0 281.5 -131t96.5 -352v-114h-587q0 -166 59.5 -269t182.5 -103q85 0 148 26.5t116 77.5l66 -126q-54 -56 -142.5 -94t-201.5 -38q-202 0 -316.5 148t-114.5 385zM284 649h383v23q0 122 -43.5 198t-134.5 76q-88 0 -140 -81.5 t-65 -215.5zM371 1277l176 266h233l3 -5l-242 -261h-170z" />
<glyph unicode="&#xea;" horiz-adv-x="933" d="M77 512v47q0 238 114 390.5t298 152.5q185 0 281.5 -131t96.5 -352v-114h-587q0 -166 59.5 -269t182.5 -103q85 0 148 26.5t116 77.5l66 -126q-54 -56 -142.5 -94t-201.5 -38q-202 0 -316.5 148t-114.5 385zM185 1278v23l225 232h123l228 -233v-22h-164l-126 151 l-124 -151h-162zM284 649h383v23q0 122 -43.5 198t-134.5 76q-88 0 -140 -81.5t-65 -215.5z" />
<glyph unicode="&#xeb;" horiz-adv-x="933" d="M77 512v47q0 238 114 390.5t298 152.5q185 0 281.5 -131t96.5 -352v-114h-587q0 -166 59.5 -269t182.5 -103q85 0 148 26.5t116 77.5l66 -126q-54 -56 -142.5 -94t-201.5 -38q-202 0 -316.5 148t-114.5 385zM151 1296v185h209v-185h-209zM284 649h383v23q0 122 -43.5 198 t-134.5 76q-88 0 -140 -81.5t-65 -215.5zM587 1296v185h209v-185h-209z" />
<glyph unicode="&#xec;" horiz-adv-x="470" d="M-77 1520l2 5h235l172 -266h-177zM131 0v1082h203v-1082h-203z" />
<glyph unicode="&#xed;" horiz-adv-x="470" d="M131 0v1082h203v-1082h-203zM133 1255l176 266h233l3 -5l-242 -261h-170z" />
<glyph unicode="&#xee;" horiz-adv-x="470" d="M-52 1256v23l225 232h123l228 -233v-22h-164l-126 151l-124 -151h-162zM131 0v1082h203v-1082h-203z" />
<glyph unicode="&#xef;" horiz-adv-x="470" d="M-87 1274v185h209v-185h-209zM131 0v1082h203v-1082h-203zM349 1274v185h209v-185h-209z" />
<glyph unicode="&#xf0;" horiz-adv-x="1053" d="M60 462q0 230 116 368t308 138q77 0 144 -32t112 -86l4 5q-9 105 -45 190.5t-92 151.5l-238 -156l-64 94l215 141q-36 26 -75.5 46.5t-81.5 37.5l64 157q70 -22 134.5 -56t120.5 -79l186 123l64 -94l-166 -109q90 -104 139.5 -243t49.5 -308v-213q0 -246 -129 -402.5 t-323 -156.5q-195 0 -319 138.5t-124 344.5zM263 462q0 -132 66.5 -230t177.5 -98q110 0 177.5 113.5t67.5 290.5v141q-30 58 -94 98t-154 40q-112 0 -176.5 -101t-64.5 -254z" />
<glyph unicode="&#xf1;" d="M115 0v1082h186l12 -161q46 86 116 133.5t159 47.5q144 0 224.5 -106t80.5 -330v-666h-203v665q0 153 -42.5 216t-128.5 63q-70 0 -120 -36.5t-80 -100.5v-807h-204zM191 1308q0 90 50.5 155t127.5 65q50 0 127 -49.5t121 -49.5q33 0 57.5 34t24.5 84l110 -31 q0 -92 -50.5 -155t-127.5 -63q-62 0 -133 49t-115 49q-35 0 -58 -33.5t-23 -82.5z" />
<glyph unicode="&#xf2;" d="M76 526v27q0 241 114 395t313 154t313.5 -154t114.5 -395v-27q0 -242 -114 -394.5t-312 -152.5q-201 0 -315 152.5t-114 394.5zM194 1541l2 5h235l172 -266h-177zM280 526q0 -173 55.5 -283t169.5 -110q111 0 166.5 110.5t55.5 282.5v27q0 170 -56 281.5t-168 111.5 t-167.5 -111.5t-55.5 -281.5v-27z" />
<glyph unicode="&#xf3;" d="M76 526v27q0 241 114 395t313 154t313.5 -154t114.5 -395v-27q0 -242 -114 -394.5t-312 -152.5q-201 0 -315 152.5t-114 394.5zM280 526q0 -173 55.5 -283t169.5 -110q111 0 166.5 110.5t55.5 282.5v27q0 170 -56 281.5t-168 111.5t-167.5 -111.5t-55.5 -281.5v-27z M405 1276l176 266h233l3 -5l-242 -261h-170z" />
<glyph unicode="&#xf4;" d="M76 526v27q0 241 114 395t313 154t313.5 -154t114.5 -395v-27q0 -242 -114 -394.5t-312 -152.5q-201 0 -315 152.5t-114 394.5zM219 1277v23l225 232h123l228 -233v-22h-164l-126 151l-124 -151h-162zM280 526q0 -173 55.5 -283t169.5 -110q111 0 166.5 110.5t55.5 282.5 v27q0 170 -56 281.5t-168 111.5t-167.5 -111.5t-55.5 -281.5v-27z" />
<glyph unicode="&#xf5;" d="M76 526v27q0 241 114 395t313 154t313.5 -154t114.5 -395v-27q0 -242 -114 -394.5t-312 -152.5q-201 0 -315 152.5t-114 394.5zM194 1308q0 90 50.5 155t127.5 65q50 0 127 -49.5t121 -49.5q33 0 57.5 34t24.5 84l110 -31q0 -92 -50.5 -155t-127.5 -63q-62 0 -133 49 t-115 49q-35 0 -58 -33.5t-23 -82.5zM280 526q0 -173 55.5 -283t169.5 -110q111 0 166.5 110.5t55.5 282.5v27q0 170 -56 281.5t-168 111.5t-167.5 -111.5t-55.5 -281.5v-27z" />
<glyph unicode="&#xf6;" d="M76 526v27q0 241 114 395t313 154t313.5 -154t114.5 -395v-27q0 -242 -114 -394.5t-312 -152.5q-201 0 -315 152.5t-114 394.5zM184 1295v185h209v-185h-209zM280 526q0 -173 55.5 -283t169.5 -110q111 0 166.5 110.5t55.5 282.5v27q0 170 -56 281.5t-168 111.5 t-167.5 -111.5t-55.5 -281.5v-27zM620 1295v185h209v-185h-209z" />
<glyph unicode="&#xf7;" horiz-adv-x="1018" d="M64 608v171h872v-171h-872zM398 188v195h206v-195h-206zM398 995v195h206v-195h-206z" />
<glyph unicode="&#xf8;" horiz-adv-x="1009" d="M76 526v27q0 241 114 395t313 154q46 0 88 -9.5t81 -26.5l62 147h122l-89 -211q79 -73 121.5 -189.5t42.5 -259.5v-27q0 -242 -114 -394.5t-312 -152.5q-44 0 -83 7.5t-74 21.5l-62 -147h-121l87 206q-86 71 -131 190t-45 269zM280 526q0 -81 11.5 -149.5t36.5 -112.5h6 l273 648q-23 16 -49 25t-55 9q-112 0 -167.5 -111.5t-55.5 -281.5v-27zM411 159q20 -13 43.5 -19.5t50.5 -6.5q111 0 166.5 110.5t55.5 282.5v27q0 73 -10.5 136t-30.5 106l-6 1z" />
<glyph unicode="&#xf9;" d="M112 451v631h204v-633q0 -174 40 -243.5t122 -69.5q75 0 127.5 35t82.5 100v811h204v-1082h-173l-20 158q-44 -86 -112 -132.5t-158 -46.5q-149 0 -233 115t-84 357zM192 1520l2 5h235l172 -266h-177z" />
<glyph unicode="&#xfa;" d="M112 451v631h204v-633q0 -174 40 -243.5t122 -69.5q75 0 127.5 35t82.5 100v811h204v-1082h-173l-20 158q-44 -86 -112 -132.5t-158 -46.5q-149 0 -233 115t-84 357zM403 1255l176 266h233l3 -5l-242 -261h-170z" />
<glyph unicode="&#xfb;" d="M112 451v631h204v-633q0 -174 40 -243.5t122 -69.5q75 0 127.5 35t82.5 100v811h204v-1082h-173l-20 158q-44 -86 -112 -132.5t-158 -46.5q-149 0 -233 115t-84 357zM217 1256v23l225 232h123l228 -233v-22h-164l-126 151l-124 -151h-162z" />
<glyph unicode="&#xfc;" d="M112 451v631h204v-633q0 -174 40 -243.5t122 -69.5q75 0 127.5 35t82.5 100v811h204v-1082h-173l-20 158q-44 -86 -112 -132.5t-158 -46.5q-149 0 -233 115t-84 357zM182 1274v185h209v-185h-209zM618 1274v185h209v-185h-209z" />
<glyph unicode="&#xfd;" horiz-adv-x="903" d="M20 1082h222l183 -709l16 -73h6l212 782h223l-387 -1250q-37 -111 -103 -190t-190 -79q-25 0 -54 5.5t-57 12.5l23 150q10 -2 29.5 -4t30.5 -2q60 0 95 50.5t55 119.5l37 112zM351 1255l176 266h233l3 -5l-242 -261h-170z" />
<glyph unicode="&#xfe;" horiz-adv-x="1019" d="M124 0v1560h204v-594q43 66 105 101t143 35q172 0 267.5 -157t95.5 -417v-21q0 -240 -95.5 -384t-266.5 -144q-80 0 -141.5 31.5t-104.5 92.5v-519h-204v416h-3zM331 260q28 -61 75 -94t116 -33q107 0 160 102t53 272v21q0 184 -53.5 300t-160.5 116q-68 0 -115 -37.5 t-75 -101.5v-545z" />
<glyph unicode="&#xff;" horiz-adv-x="903" d="M20 1082h222l183 -709l16 -73h6l212 782h223l-387 -1250q-37 -111 -103 -190t-190 -79q-25 0 -54 5.5t-57 12.5l23 150q10 -2 29.5 -4t30.5 -2q60 0 95 50.5t55 119.5l37 112zM131 1274v185h209v-185h-209zM567 1274v185h209v-185h-209z" />
<glyph unicode="&#x152;" horiz-adv-x="1705" d="M94 576v304q0 265 138 431t360 166q60 0 122 -6t130 -15v-160q-59 12 -123 19t-129 7q-138 0 -216.5 -115.5t-78.5 -324.5v-306q0 -210 79.5 -326t217.5 -116q64 0 127.5 6.5t122.5 19.5v-160q-79 -10 -136 -15.5t-114 -5.5q-223 0 -361.5 165.5t-138.5 431.5zM874 0 v1456h780v-156h-577v-469h494v-155h-494v-522h582v-154h-785z" />
<glyph unicode="&#x153;" horiz-adv-x="1609" d="M76 526v27q0 241 114 395t313 154q142 0 242 -81t148 -222q47 140 145.5 221.5t230.5 81.5q185 0 281.5 -131t96.5 -352v-114h-587q0 -166 59.5 -269t182.5 -103q85 0 148 26.5t116 77.5l66 -126q-54 -56 -142.5 -94t-201.5 -38q-146 0 -247.5 79t-148.5 218 q-48 -139 -148 -218t-239 -79q-201 0 -315 152.5t-114 394.5zM280 526q0 -173 55.5 -283t169.5 -110q111 0 166.5 110.5t55.5 282.5v27q0 170 -56 281.5t-168 111.5t-167.5 -111.5t-55.5 -281.5v-27zM1064 649h383v23q0 122 -43.5 198t-134.5 76q-88 0 -140 -81.5 t-65 -215.5z" />
<glyph unicode="&#x178;" horiz-adv-x="1127" d="M28 1456h226l305 -710h6l304 710h228l-437 -932v-524h-203v539zM243 1613v185h209v-185h-209zM679 1613v185h209v-185h-209z" />
<glyph unicode="&#x2c6;" horiz-adv-x="861" d="M138 1252v23l225 232h123l228 -233v-22h-164l-126 151l-124 -151h-162z" />
<glyph unicode="&#x2dc;" horiz-adv-x="849" d="M112 1276q0 90 50.5 155t127.5 65q50 0 127 -49.5t121 -49.5q33 0 57.5 34t24.5 84l110 -31q0 -92 -50.5 -155t-127.5 -63q-62 0 -133 49t-115 49q-35 0 -58 -33.5t-23 -82.5z" />
<glyph unicode="&#x2000;" horiz-adv-x="950" />
<glyph unicode="&#x2001;" horiz-adv-x="1900" />
<glyph unicode="&#x2002;" horiz-adv-x="950" />
<glyph unicode="&#x2003;" horiz-adv-x="1900" />
<glyph unicode="&#x2004;" horiz-adv-x="633" />
<glyph unicode="&#x2005;" horiz-adv-x="475" />
<glyph unicode="&#x2006;" horiz-adv-x="316" />
<glyph unicode="&#x2007;" horiz-adv-x="316" />
<glyph unicode="&#x2008;" horiz-adv-x="237" />
<glyph unicode="&#x2009;" horiz-adv-x="380" />
<glyph unicode="&#x200a;" horiz-adv-x="105" />
<glyph unicode="&#x2010;" horiz-adv-x="787" d="M137 542v155h507v-155h-507z" />
<glyph unicode="&#x2011;" horiz-adv-x="787" d="M137 542v155h507v-155h-507z" />
<glyph unicode="&#x2012;" horiz-adv-x="787" d="M137 542v155h507v-155h-507z" />
<glyph unicode="&#x2013;" horiz-adv-x="1230" d="M144 649v155h934v-155h-934z" />
<glyph unicode="&#x2014;" horiz-adv-x="1446" d="M145 649v155h1148v-155h-1148z" />
<glyph unicode="&#x2018;" horiz-adv-x="474" d="M132 937v202l84 317h102l-3 -318v-201h-183z" />
<glyph unicode="&#x2019;" horiz-adv-x="471" d="M144 937l3 309v210h183v-208l-85 -311h-101z" />
<glyph unicode="&#x201a;" horiz-adv-x="499" d="M150 -239l3 265v239h190v-225l-85 -279h-108z" />
<glyph unicode="&#x201c;" horiz-adv-x="724" d="M110 937v202l84 317h102l-3 -318v-201h-183zM438 937v202l84 317h102l-3 -318v-201h-183z" />
<glyph unicode="&#x201d;" horiz-adv-x="717" d="M109 937l3 309v210h183v-208l-85 -311h-101zM445 937l3 309v210h183v-208l-85 -311h-101z" />
<glyph unicode="&#x201e;" horiz-adv-x="719" d="M135 -219l3 294v208h177v-199l-84 -303h-96zM409 -219l2 300v202h177v-199l-85 -303h-94z" />
<glyph unicode="&#x2022;" horiz-adv-x="651" d="M131 721v72q0 87 52.5 143t141.5 56q91 0 144.5 -55.5t53.5 -143.5v-72q0 -89 -53 -143.5t-143 -54.5t-143 54.5t-53 143.5z" />
<glyph unicode="&#x2026;" horiz-adv-x="1255" d="M138 0v203h205v-203h-205zM581 0v203h205v-203h-205zM1001 0v203h205v-203h-205z" />
<glyph unicode="&#x202f;" horiz-adv-x="380" />
<glyph unicode="&#x2039;" horiz-adv-x="552" d="M99 543v19l247 384h140l-214 -394l214 -394h-140z" />
<glyph unicode="&#x203a;" horiz-adv-x="543" d="M97 245l138 305l-138 304h141l160 -209h51l15 -87l3 -3l-1 -6l1 -5l-3 -4l-15 -84l-50 -1l-161 -210h-141z" />
<glyph unicode="&#x205f;" horiz-adv-x="475" />
<glyph unicode="&#x20ac;" horiz-adv-x="960" d="M71 511v119h128v173h-128v119h128v23q0 243 125 387.5t328 144.5q51 0 100.5 -8t106.5 -23l-16 -160q-46 16 -94.5 25.5t-96.5 9.5q-116 0 -183 -101t-67 -273v-25h400v-119h-400v-173h400v-119h-400v-9q0 -170 67.5 -269.5t183.5 -99.5q50 0 97.5 8.5t92.5 25.5l16 -157 q-48 -15 -100.5 -23t-105.5 -8q-203 0 -328.5 142t-125.5 381v9h-128z" />
<glyph unicode="&#x2122;" horiz-adv-x="1119" d="M92 1371v85h336v-85h-119v-453h-100v453h-117zM492 917v539h116l121 -392h6l122 392h111v-539h-94v315l-6 1l-109 -316h-53l-114 330l-6 -1v-329h-94z" />
<glyph unicode="&#x25fc;" horiz-adv-x="1080" d="M0 0v1080h1080v-1080h-1080z" />
<glyph unicode="&#xfb02;" horiz-adv-x="1074" d="M42 937v145h143v139q0 172 83.5 266t233.5 94q30 0 61.5 -5.5t68.5 -15.5l-19 -149q-19 5 -40 8t-46 3q-68 0 -103.5 -52t-35.5 -149v-139h179v-145h-179v-937h-203v937h-143zM739 0v1560h204v-1560h-204z" />
<glyph unicode="&#xfb03;" horiz-adv-x="1646" d="M42 937v145h143v139q0 172 83.5 266t233.5 94q30 0 61.5 -5.5t68.5 -15.5l-19 -149q-19 5 -40 8t-46 3q-68 0 -103.5 -52t-35.5 -149v-139h179v-145h-179v-937h-203v937h-143zM638 937v145h143v111q0 185 98.5 286.5t275.5 101.5q63 0 126 -15.5t138 -44.5l-31 -158 q-51 22 -104 35.5t-116 13.5q-94 0 -139 -55.5t-45 -163.5v-111h188v-145h-188v-937h-203v937h-143zM1311 0v1082h204v-1082h-204z" />
<glyph unicode="&#xfb04;" horiz-adv-x="1683" d="M42 937v145h143v139q0 172 83.5 266t233.5 94q30 0 61.5 -5.5t68.5 -15.5l-19 -149q-19 5 -40 8t-46 3q-68 0 -103.5 -52t-35.5 -149v-139h179v-145h-179v-937h-203v937h-143zM651 937v145h143v139q0 172 83.5 266t233.5 94q30 0 61.5 -5.5t68.5 -15.5l-19 -149 q-19 5 -40 8t-46 3q-68 0 -103.5 -52t-35.5 -149v-139h179v-145h-179v-937h-203v937h-143zM1348 0v1560h204v-1560h-204z" />
<hkern u1="&#x22;" u2="w" k="-11" />
<hkern u1="&#x27;" u2="w" k="-11" />
<hkern u1="&#x28;" u2="&#x178;" k="-22" />
<hkern u1="&#x28;" u2="&#xdd;" k="-22" />
<hkern u1="&#x28;" u2="Y" k="-22" />
<hkern u1="&#x28;" u2="W" k="-18" />
<hkern u1="&#x28;" u2="V" k="-20" />
<hkern u1="A" u2="w" k="33" />
<hkern u1="A" u2="t" k="17" />
<hkern u1="A" u2="&#x3f;" k="61" />
<hkern u1="C" u2="&#x7d;" k="17" />
<hkern u1="C" u2="]" k="12" />
<hkern u1="C" u2="&#x29;" k="26" />
<hkern u1="D" u2="&#xc6;" k="33" />
<hkern u1="E" u2="w" k="22" />
<hkern u1="E" u2="f" k="18" />
<hkern u1="F" u2="&#x2026;" k="234" />
<hkern u1="F" u2="&#x201e;" k="234" />
<hkern u1="F" u2="&#x201a;" k="234" />
<hkern u1="F" u2="&#x153;" k="21" />
<hkern u1="F" u2="&#xff;" k="24" />
<hkern u1="F" u2="&#xfd;" k="24" />
<hkern u1="F" u2="&#xfc;" k="22" />
<hkern u1="F" u2="&#xfb;" k="22" />
<hkern u1="F" u2="&#xfa;" k="22" />
<hkern u1="F" u2="&#xf9;" k="22" />
<hkern u1="F" u2="&#xf6;" k="21" />
<hkern u1="F" u2="&#xf5;" k="21" />
<hkern u1="F" u2="&#xf4;" k="21" />
<hkern u1="F" u2="&#xf3;" k="21" />
<hkern u1="F" u2="&#xf2;" k="21" />
<hkern u1="F" u2="&#xeb;" k="21" />
<hkern u1="F" u2="&#xea;" k="21" />
<hkern u1="F" u2="&#xe9;" k="21" />
<hkern u1="F" u2="&#xe8;" k="21" />
<hkern u1="F" u2="&#xe7;" k="21" />
<hkern u1="F" u2="&#xe5;" k="34" />
<hkern u1="F" u2="&#xe4;" k="34" />
<hkern u1="F" u2="&#xe3;" k="34" />
<hkern u1="F" u2="&#xe2;" k="34" />
<hkern u1="F" u2="&#xe1;" k="34" />
<hkern u1="F" u2="&#xe0;" k="34" />
<hkern u1="F" u2="&#xc5;" k="59" />
<hkern u1="F" u2="&#xc4;" k="59" />
<hkern u1="F" u2="&#xc3;" k="59" />
<hkern u1="F" u2="&#xc2;" k="59" />
<hkern u1="F" u2="&#xc1;" k="59" />
<hkern u1="F" u2="&#xc0;" k="59" />
<hkern u1="F" u2="y" k="24" />
<hkern u1="F" u2="v" k="24" />
<hkern u1="F" u2="u" k="22" />
<hkern u1="F" u2="q" k="21" />
<hkern u1="F" u2="o" k="21" />
<hkern u1="F" u2="g" k="21" />
<hkern u1="F" u2="e" k="21" />
<hkern u1="F" u2="d" k="21" />
<hkern u1="F" u2="c" k="21" />
<hkern u1="F" u2="a" k="34" />
<hkern u1="F" u2="A" k="59" />
<hkern u1="F" u2="&#x3a;" k="234" />
<hkern u1="F" u2="&#x2e;" k="234" />
<hkern u1="F" u2="&#x2c;" k="234" />
<hkern u1="F" u2="r" k="26" />
<hkern u1="K" u2="w" k="63" />
<hkern u1="L" u2="w" k="92" />
<hkern u1="O" u2="&#xc6;" k="33" />
<hkern u1="P" u2="&#xc6;" k="97" />
<hkern u1="P" u2="t" k="-14" />
<hkern u1="Q" u2="&#x178;" k="35" />
<hkern u1="Q" u2="&#xdd;" k="35" />
<hkern u1="Q" u2="Y" k="35" />
<hkern u1="Q" u2="W" k="20" />
<hkern u1="Q" u2="V" k="28" />
<hkern u1="Q" u2="T" k="43" />
<hkern u1="R" u2="&#x178;" k="48" />
<hkern u1="R" u2="&#xdd;" k="48" />
<hkern u1="R" u2="Y" k="48" />
<hkern u1="R" u2="V" k="19" />
<hkern u1="R" u2="T" k="80" />
<hkern u1="T" u2="&#xf8;" k="95" />
<hkern u1="T" u2="&#xe6;" k="114" />
<hkern u1="T" u2="&#xc6;" k="179" />
<hkern u1="T" u2="&#xbb;" k="216" />
<hkern u1="T" u2="&#xab;" k="328" />
<hkern u1="T" u2="w" k="57" />
<hkern u1="T" u2="r" k="75" />
<hkern u1="V" u2="&#x7d;" k="-19" />
<hkern u1="V" u2="r" k="30" />
<hkern u1="V" u2="]" k="-17" />
<hkern u1="V" u2="&#x29;" k="-20" />
<hkern u1="W" u2="&#x7d;" k="-14" />
<hkern u1="W" u2="r" k="21" />
<hkern u1="W" u2="]" k="-12" />
<hkern u1="W" u2="&#x29;" k="-15" />
<hkern u1="Y" u2="&#x2022;" k="45" />
<hkern u1="Y" u2="&#xf8;" k="64" />
<hkern u1="Y" u2="&#xe6;" k="63" />
<hkern u1="Y" u2="&#xc6;" k="96" />
<hkern u1="Y" u2="&#xbb;" k="51" />
<hkern u1="Y" u2="&#xab;" k="82" />
<hkern u1="Y" u2="&#x7d;" k="-19" />
<hkern u1="Y" u2="t" k="22" />
<hkern u1="Y" u2="r" k="40" />
<hkern u1="Y" u2="f" k="22" />
<hkern u1="Y" u2="]" k="-18" />
<hkern u1="Y" u2="&#x2a;" k="49" />
<hkern u1="Y" u2="&#x29;" k="-20" />
<hkern u1="Y" u2="&#x26;" k="30" />
<hkern u1="Z" u2="w" k="27" />
<hkern u1="[" u2="&#xdc;" k="18" />
<hkern u1="[" u2="&#xdb;" k="18" />
<hkern u1="[" u2="&#xda;" k="18" />
<hkern u1="[" u2="&#xd9;" k="18" />
<hkern u1="[" u2="U" k="18" />
<hkern u1="[" u2="J" k="18" />
<hkern u1="f" u2="&#x201d;" k="-16" />
<hkern u1="f" u2="&#x201c;" k="-16" />
<hkern u1="f" u2="&#x2019;" k="-16" />
<hkern u1="f" u2="&#x2018;" k="-16" />
<hkern u1="f" u2="&#x153;" k="24" />
<hkern u1="f" u2="&#xeb;" k="24" />
<hkern u1="f" u2="&#xea;" k="24" />
<hkern u1="f" u2="&#xe9;" k="24" />
<hkern u1="f" u2="&#xe8;" k="24" />
<hkern u1="f" u2="&#xe7;" k="24" />
<hkern u1="f" u2="q" k="24" />
<hkern u1="f" u2="g" k="24" />
<hkern u1="f" u2="e" k="24" />
<hkern u1="f" u2="d" k="24" />
<hkern u1="f" u2="c" k="24" />
<hkern u1="f" u2="&#x27;" k="-16" />
<hkern u1="f" u2="&#x22;" k="-16" />
<hkern u1="f" u2="&#x7d;" k="-19" />
<hkern u1="f" u2="]" k="-18" />
<hkern u1="f" u2="&#x29;" k="-20" />
<hkern u1="k" u2="&#x153;" k="20" />
<hkern u1="k" u2="&#xeb;" k="20" />
<hkern u1="k" u2="&#xea;" k="20" />
<hkern u1="k" u2="&#xe9;" k="20" />
<hkern u1="k" u2="&#xe8;" k="20" />
<hkern u1="k" u2="&#xe7;" k="20" />
<hkern u1="k" u2="q" k="20" />
<hkern u1="k" u2="g" k="20" />
<hkern u1="k" u2="e" k="20" />
<hkern u1="k" u2="d" k="20" />
<hkern u1="k" u2="c" k="20" />
<hkern u1="r" u2="w" k="-17" />
<hkern u1="r" u2="t" k="-17" />
<hkern u1="r" u2="f" k="-15" />
<hkern u1="v" u2="f" k="-13" />
<hkern u1="w" u2="&#x2026;" k="124" />
<hkern u1="w" u2="&#x201e;" k="124" />
<hkern u1="w" u2="&#x201a;" k="124" />
<hkern u1="w" u2="&#x3a;" k="124" />
<hkern u1="w" u2="&#x2e;" k="124" />
<hkern u1="w" u2="&#x2c;" k="124" />
<hkern u1="y" u2="f" k="-13" />
<hkern u1="&#x7b;" u2="&#xdc;" k="20" />
<hkern u1="&#x7b;" u2="&#xdb;" k="20" />
<hkern u1="&#x7b;" u2="&#xda;" k="20" />
<hkern u1="&#x7b;" u2="&#xd9;" k="20" />
<hkern u1="&#x7b;" u2="U" k="20" />
<hkern u1="&#x7b;" u2="J" k="20" />
<hkern u1="&#xc0;" u2="w" k="33" />
<hkern u1="&#xc0;" u2="t" k="17" />
<hkern u1="&#xc0;" u2="&#x3f;" k="61" />
<hkern u1="&#xc1;" u2="w" k="33" />
<hkern u1="&#xc1;" u2="t" k="17" />
<hkern u1="&#xc1;" u2="&#x3f;" k="61" />
<hkern u1="&#xc2;" u2="w" k="33" />
<hkern u1="&#xc2;" u2="t" k="17" />
<hkern u1="&#xc2;" u2="&#x3f;" k="61" />
<hkern u1="&#xc3;" u2="w" k="33" />
<hkern u1="&#xc3;" u2="t" k="17" />
<hkern u1="&#xc3;" u2="&#x3f;" k="61" />
<hkern u1="&#xc4;" u2="w" k="33" />
<hkern u1="&#xc4;" u2="t" k="17" />
<hkern u1="&#xc4;" u2="&#x3f;" k="61" />
<hkern u1="&#xc5;" u2="w" k="33" />
<hkern u1="&#xc5;" u2="t" k="17" />
<hkern u1="&#xc5;" u2="&#x3f;" k="61" />
<hkern u1="&#xc7;" u2="&#x7d;" k="17" />
<hkern u1="&#xc7;" u2="]" k="12" />
<hkern u1="&#xc7;" u2="&#x29;" k="26" />
<hkern u1="&#xc8;" u2="w" k="22" />
<hkern u1="&#xc8;" u2="f" k="18" />
<hkern u1="&#xc9;" u2="w" k="22" />
<hkern u1="&#xc9;" u2="f" k="18" />
<hkern u1="&#xca;" u2="w" k="22" />
<hkern u1="&#xca;" u2="f" k="18" />
<hkern u1="&#xcb;" u2="w" k="22" />
<hkern u1="&#xcb;" u2="f" k="18" />
<hkern u1="&#xd0;" u2="&#xc6;" k="33" />
<hkern u1="&#xd2;" u2="&#xc6;" k="33" />
<hkern u1="&#xd3;" u2="&#xc6;" k="33" />
<hkern u1="&#xd4;" u2="&#xc6;" k="33" />
<hkern u1="&#xd5;" u2="&#xc6;" k="33" />
<hkern u1="&#xd6;" u2="&#xc6;" k="33" />
<hkern u1="&#xdd;" u2="&#x2022;" k="45" />
<hkern u1="&#xdd;" u2="&#xf8;" k="64" />
<hkern u1="&#xdd;" u2="&#xe6;" k="63" />
<hkern u1="&#xdd;" u2="&#xc6;" k="96" />
<hkern u1="&#xdd;" u2="&#xbb;" k="51" />
<hkern u1="&#xdd;" u2="&#xab;" k="82" />
<hkern u1="&#xdd;" u2="&#x7d;" k="-19" />
<hkern u1="&#xdd;" u2="t" k="22" />
<hkern u1="&#xdd;" u2="r" k="40" />
<hkern u1="&#xdd;" u2="f" k="22" />
<hkern u1="&#xdd;" u2="]" k="-18" />
<hkern u1="&#xdd;" u2="&#x2a;" k="49" />
<hkern u1="&#xdd;" u2="&#x29;" k="-20" />
<hkern u1="&#xdd;" u2="&#x26;" k="30" />
<hkern u1="&#xfd;" u2="f" k="-13" />
<hkern u1="&#xff;" u2="f" k="-13" />
<hkern u1="&#x178;" u2="&#x2022;" k="45" />
<hkern u1="&#x178;" u2="&#xf8;" k="64" />
<hkern u1="&#x178;" u2="&#xe6;" k="63" />
<hkern u1="&#x178;" u2="&#xc6;" k="96" />
<hkern u1="&#x178;" u2="&#xbb;" k="51" />
<hkern u1="&#x178;" u2="&#xab;" k="82" />
<hkern u1="&#x178;" u2="&#x7d;" k="-19" />
<hkern u1="&#x178;" u2="t" k="22" />
<hkern u1="&#x178;" u2="r" k="40" />
<hkern u1="&#x178;" u2="f" k="22" />
<hkern u1="&#x178;" u2="]" k="-18" />
<hkern u1="&#x178;" u2="&#x2a;" k="49" />
<hkern u1="&#x178;" u2="&#x29;" k="-20" />
<hkern u1="&#x178;" u2="&#x26;" k="30" />
<hkern u1="&#x2018;" u2="w" k="-11" />
<hkern u1="&#x2019;" u2="w" k="-11" />
<hkern u1="&#x201c;" u2="w" k="-11" />
<hkern u1="&#x201d;" u2="w" k="-11" />
<hkern g1="A,Agrave,Aacute,Acircumflex,Atilde,Adieresis,Aring" 	g2="v,y,yacute,ydieresis" 	k="50" />
<hkern g1="A,Agrave,Aacute,Acircumflex,Atilde,Adieresis,Aring" 	g2="C,G,O,Q,Ccedilla,Ograve,Oacute,Ocircumflex,Otilde,Odieresis,Oslash,OE" 	k="11" />
<hkern g1="A,Agrave,Aacute,Acircumflex,Atilde,Adieresis,Aring" 	g2="U,Ugrave,Uacute,Ucircumflex,Udieresis" 	k="17" />
<hkern g1="A,Agrave,Aacute,Acircumflex,Atilde,Adieresis,Aring" 	g2="quotedbl,quotesingle,quoteleft,quoteright,quotedblleft,quotedblright" 	k="79" />
<hkern g1="A,Agrave,Aacute,Acircumflex,Atilde,Adieresis,Aring" 	g2="o,ograve,oacute,ocircumflex,otilde,odieresis" 	k="12" />
<hkern g1="A,Agrave,Aacute,Acircumflex,Atilde,Adieresis,Aring" 	g2="W" 	k="69" />
<hkern g1="A,Agrave,Aacute,Acircumflex,Atilde,Adieresis,Aring" 	g2="T" 	k="129" />
<hkern g1="A,Agrave,Aacute,Acircumflex,Atilde,Adieresis,Aring" 	g2="u,ugrave,uacute,ucircumflex,udieresis" 	k="11" />
<hkern g1="A,Agrave,Aacute,Acircumflex,Atilde,Adieresis,Aring" 	g2="z" 	k="-12" />
<hkern g1="A,Agrave,Aacute,Acircumflex,Atilde,Adieresis,Aring" 	g2="V" 	k="87" />
<hkern g1="A,Agrave,Aacute,Acircumflex,Atilde,Adieresis,Aring" 	g2="Y,Yacute,Ydieresis" 	k="94" />
<hkern g1="B" 	g2="T" 	k="27" />
<hkern g1="B" 	g2="V" 	k="24" />
<hkern g1="B" 	g2="Y,Yacute,Ydieresis" 	k="55" />
<hkern g1="H,I,M,N,Igrave,Iacute,Icircumflex,Idieresis,Ntilde" 	g2="T" 	k="29" />
<hkern g1="H,I,M,N,Igrave,Iacute,Icircumflex,Idieresis,Ntilde" 	g2="Y,Yacute,Ydieresis" 	k="28" />
<hkern g1="H,I,M,N,Igrave,Iacute,Icircumflex,Idieresis,Ntilde" 	g2="A,Agrave,Aacute,Acircumflex,Atilde,Adieresis,Aring" 	k="-18" />
<hkern g1="H,I,M,N,Igrave,Iacute,Icircumflex,Idieresis,Ntilde" 	g2="X" 	k="-17" />
<hkern g1="D,O,Eth,Ograve,Oacute,Ocircumflex,Otilde,Odieresis" 	g2="T" 	k="27" />
<hkern g1="D,O,Eth,Ograve,Oacute,Ocircumflex,Otilde,Odieresis" 	g2="V" 	k="22" />
<hkern g1="D,O,Eth,Ograve,Oacute,Ocircumflex,Otilde,Odieresis" 	g2="Y,Yacute,Ydieresis" 	k="43" />
<hkern g1="D,O,Eth,Ograve,Oacute,Ocircumflex,Otilde,Odieresis" 	g2="A,Agrave,Aacute,Acircumflex,Atilde,Adieresis,Aring" 	k="21" />
<hkern g1="D,O,Eth,Ograve,Oacute,Ocircumflex,Otilde,Odieresis" 	g2="X" 	k="22" />
<hkern g1="D,O,Eth,Ograve,Oacute,Ocircumflex,Otilde,Odieresis" 	g2="comma,period,colon,quotesinglbase,quotedblbase,ellipsis" 	k="102" />
<hkern g1="D,O,Eth,Ograve,Oacute,Ocircumflex,Otilde,Odieresis" 	g2="Z" 	k="23" />
<hkern g1="C,Ccedilla" 	g2="T" 	k="29" />
<hkern g1="E,Egrave,Eacute,Ecircumflex,Edieresis" 	g2="v,y,yacute,ydieresis" 	k="26" />
<hkern g1="E,Egrave,Eacute,Ecircumflex,Edieresis" 	g2="o,ograve,oacute,ocircumflex,otilde,odieresis" 	k="19" />
<hkern g1="E,Egrave,Eacute,Ecircumflex,Edieresis" 	g2="u,ugrave,uacute,ucircumflex,udieresis" 	k="17" />
<hkern g1="E,Egrave,Eacute,Ecircumflex,Edieresis" 	g2="c,d,e,g,q,ccedilla,egrave,eacute,ecircumflex,edieresis,oe" 	k="19" />
<hkern g1="T" 	g2="v,y,yacute,ydieresis" 	k="72" />
<hkern g1="T" 	g2="C,G,O,Q,Ccedilla,Ograve,Oacute,Ocircumflex,Otilde,Odieresis,Oslash,OE" 	k="28" />
<hkern g1="T" 	g2="o,ograve,oacute,ocircumflex,otilde,odieresis" 	k="99" />
<hkern g1="T" 	g2="W" 	k="-15" />
<hkern g1="T" 	g2="T" 	k="-16" />
<hkern g1="T" 	g2="u,ugrave,uacute,ucircumflex,udieresis" 	k="95" />
<hkern g1="T" 	g2="z" 	k="60" />
<hkern g1="T" 	g2="V" 	k="-16" />
<hkern g1="T" 	g2="Y,Yacute,Ydieresis" 	k="-16" />
<hkern g1="T" 	g2="A,Agrave,Aacute,Acircumflex,Atilde,Adieresis,Aring" 	k="79" />
<hkern g1="T" 	g2="comma,period,colon,quotesinglbase,quotedblbase,ellipsis" 	k="218" />
<hkern g1="T" 	g2="c,d,e,g,q,ccedilla,egrave,eacute,ecircumflex,edieresis,oe" 	k="99" />
<hkern g1="T" 	g2="x" 	k="77" />
<hkern g1="T" 	g2="hyphen,uni00AD,endash,emdash" 	k="232" />
<hkern g1="T" 	g2="m,n,p,ntilde" 	k="109" />
<hkern g1="T" 	g2="S" 	k="16" />
<hkern g1="T" 	g2="a,agrave,aacute,acircumflex,atilde,adieresis,aring" 	k="113" />
<hkern g1="T" 	g2="s" 	k="116" />
<hkern g1="K" 	g2="v,y,yacute,ydieresis" 	k="40" />
<hkern g1="K" 	g2="C,G,O,Q,Ccedilla,Ograve,Oacute,Ocircumflex,Otilde,Odieresis,Oslash,OE" 	k="31" />
<hkern g1="K" 	g2="o,ograve,oacute,ocircumflex,otilde,odieresis" 	k="27" />
<hkern g1="K" 	g2="u,ugrave,uacute,ucircumflex,udieresis" 	k="23" />
<hkern g1="K" 	g2="c,d,e,g,q,ccedilla,egrave,eacute,ecircumflex,edieresis,oe" 	k="26" />
<hkern g1="K" 	g2="hyphen,uni00AD,endash,emdash" 	k="64" />
<hkern g1="K" 	g2="m,n,p,ntilde" 	k="23" />
<hkern g1="L" 	g2="v,y,yacute,ydieresis" 	k="133" />
<hkern g1="L" 	g2="C,G,O,Q,Ccedilla,Ograve,Oacute,Ocircumflex,Otilde,Odieresis,Oslash,OE" 	k="65" />
<hkern g1="L" 	g2="U,Ugrave,Uacute,Ucircumflex,Udieresis" 	k="54" />
<hkern g1="L" 	g2="quotedbl,quotesingle,quoteleft,quoteright,quotedblleft,quotedblright" 	k="138" />
<hkern g1="L" 	g2="W" 	k="143" />
<hkern g1="L" 	g2="T" 	k="275" />
<hkern g1="L" 	g2="u,ugrave,uacute,ucircumflex,udieresis" 	k="44" />
<hkern g1="L" 	g2="V" 	k="175" />
<hkern g1="L" 	g2="Y,Yacute,Ydieresis" 	k="239" />
<hkern g1="L" 	g2="A,Agrave,Aacute,Acircumflex,Atilde,Adieresis,Aring" 	k="-19" />
<hkern g1="P" 	g2="v,y,yacute,ydieresis" 	k="-15" />
<hkern g1="P" 	g2="o,ograve,oacute,ocircumflex,otilde,odieresis" 	k="13" />
<hkern g1="P" 	g2="A,Agrave,Aacute,Acircumflex,Atilde,Adieresis,Aring" 	k="138" />
<hkern g1="P" 	g2="X" 	k="31" />
<hkern g1="P" 	g2="comma,period,colon,quotesinglbase,quotedblbase,ellipsis" 	k="324" />
<hkern g1="P" 	g2="Z" 	k="26" />
<hkern g1="P" 	g2="c,d,e,g,q,ccedilla,egrave,eacute,ecircumflex,edieresis,oe" 	k="13" />
<hkern g1="P" 	g2="a,agrave,aacute,acircumflex,atilde,adieresis,aring" 	k="11" />
<hkern g1="J,U,Ugrave,Uacute,Ucircumflex,Udieresis" 	g2="A,Agrave,Aacute,Acircumflex,Atilde,Adieresis,Aring" 	k="22" />
<hkern g1="V" 	g2="v,y,yacute,ydieresis" 	k="11" />
<hkern g1="V" 	g2="C,G,O,Q,Ccedilla,Ograve,Oacute,Ocircumflex,Otilde,Odieresis,Oslash,OE" 	k="13" />
<hkern g1="V" 	g2="o,ograve,oacute,ocircumflex,otilde,odieresis" 	k="46" />
<hkern g1="V" 	g2="u,ugrave,uacute,ucircumflex,udieresis" 	k="28" />
<hkern g1="V" 	g2="A,Agrave,Aacute,Acircumflex,Atilde,Adieresis,Aring" 	k="75" />
<hkern g1="V" 	g2="comma,period,colon,quotesinglbase,quotedblbase,ellipsis" 	k="225" />
<hkern g1="V" 	g2="c,d,e,g,q,ccedilla,egrave,eacute,ecircumflex,edieresis,oe" 	k="44" />
<hkern g1="V" 	g2="hyphen,uni00AD,endash,emdash" 	k="37" />
<hkern g1="V" 	g2="a,agrave,aacute,acircumflex,atilde,adieresis,aring" 	k="46" />
<hkern g1="X" 	g2="v,y,yacute,ydieresis" 	k="31" />
<hkern g1="X" 	g2="C,G,O,Q,Ccedilla,Ograve,Oacute,Ocircumflex,Otilde,Odieresis,Oslash,OE" 	k="25" />
<hkern g1="X" 	g2="o,ograve,oacute,ocircumflex,otilde,odieresis" 	k="21" />
<hkern g1="X" 	g2="u,ugrave,uacute,ucircumflex,udieresis" 	k="21" />
<hkern g1="X" 	g2="V" 	k="-14" />
<hkern g1="X" 	g2="c,d,e,g,q,ccedilla,egrave,eacute,ecircumflex,edieresis,oe" 	k="26" />
<hkern g1="X" 	g2="hyphen,uni00AD,endash,emdash" 	k="46" />
<hkern g1="Y,Yacute,Ydieresis" 	g2="v,y,yacute,ydieresis" 	k="20" />
<hkern g1="Y,Yacute,Ydieresis" 	g2="C,G,O,Q,Ccedilla,Ograve,Oacute,Ocircumflex,Otilde,Odieresis,Oslash,OE" 	k="29" />
<hkern g1="Y,Yacute,Ydieresis" 	g2="U,Ugrave,Uacute,Ucircumflex,Udieresis" 	k="96" />
<hkern g1="Y,Yacute,Ydieresis" 	g2="o,ograve,oacute,ocircumflex,otilde,odieresis" 	k="65" />
<hkern g1="Y,Yacute,Ydieresis" 	g2="W" 	k="-17" />
<hkern g1="Y,Yacute,Ydieresis" 	g2="T" 	k="-17" />
<hkern g1="Y,Yacute,Ydieresis" 	g2="u,ugrave,uacute,ucircumflex,udieresis" 	k="39" />
<hkern g1="Y,Yacute,Ydieresis" 	g2="z" 	k="30" />
<hkern g1="Y,Yacute,Ydieresis" 	g2="V" 	k="-18" />
<hkern g1="Y,Yacute,Ydieresis" 	g2="Y,Yacute,Ydieresis" 	k="-18" />
<hkern g1="Y,Yacute,Ydieresis" 	g2="A,Agrave,Aacute,Acircumflex,Atilde,Adieresis,Aring" 	k="82" />
<hkern g1="Y,Yacute,Ydieresis" 	g2="X" 	k="-13" />
<hkern g1="Y,Yacute,Ydieresis" 	g2="comma,period,colon,quotesinglbase,quotedblbase,ellipsis" 	k="211" />
<hkern g1="Y,Yacute,Ydieresis" 	g2="c,d,e,g,q,ccedilla,egrave,eacute,ecircumflex,edieresis,oe" 	k="65" />
<hkern g1="Y,Yacute,Ydieresis" 	g2="x" 	k="23" />
<hkern g1="Y,Yacute,Ydieresis" 	g2="hyphen,uni00AD,endash,emdash" 	k="52" />
<hkern g1="Y,Yacute,Ydieresis" 	g2="m,n,p,ntilde" 	k="40" />
<hkern g1="Y,Yacute,Ydieresis" 	g2="S" 	k="16" />
<hkern g1="Y,Yacute,Ydieresis" 	g2="a,agrave,aacute,acircumflex,atilde,adieresis,aring" 	k="73" />
<hkern g1="Y,Yacute,Ydieresis" 	g2="s" 	k="58" />
<hkern g1="Y,Yacute,Ydieresis" 	g2="J" 	k="96" />
<hkern g1="W" 	g2="o,ograve,oacute,ocircumflex,otilde,odieresis" 	k="31" />
<hkern g1="W" 	g2="T" 	k="-14" />
<hkern g1="W" 	g2="u,ugrave,uacute,ucircumflex,udieresis" 	k="19" />
<hkern g1="W" 	g2="A,Agrave,Aacute,Acircumflex,Atilde,Adieresis,Aring" 	k="43" />
<hkern g1="W" 	g2="comma,period,colon,quotesinglbase,quotedblbase,ellipsis" 	k="123" />
<hkern g1="W" 	g2="c,d,e,g,q,ccedilla,egrave,eacute,ecircumflex,edieresis,oe" 	k="31" />
<hkern g1="W" 	g2="hyphen,uni00AD,endash,emdash" 	k="60" />
<hkern g1="W" 	g2="a,agrave,aacute,acircumflex,atilde,adieresis,aring" 	k="33" />
<hkern g1="Z" 	g2="v,y,yacute,ydieresis" 	k="27" />
<hkern g1="Z" 	g2="C,G,O,Q,Ccedilla,Ograve,Oacute,Ocircumflex,Otilde,Odieresis,Oslash,OE" 	k="26" />
<hkern g1="Z" 	g2="o,ograve,oacute,ocircumflex,otilde,odieresis" 	k="21" />
<hkern g1="Z" 	g2="u,ugrave,uacute,ucircumflex,udieresis" 	k="19" />
<hkern g1="Z" 	g2="A,Agrave,Aacute,Acircumflex,Atilde,Adieresis,Aring" 	k="-13" />
<hkern g1="Z" 	g2="c,d,e,g,q,ccedilla,egrave,eacute,ecircumflex,edieresis,oe" 	k="21" />
<hkern g1="a,agrave,aacute,acircumflex,atilde,adieresis,aring" 	g2="v,y,yacute,ydieresis" 	k="15" />
<hkern g1="a,agrave,aacute,acircumflex,atilde,adieresis,aring" 	g2="quotedbl,quotesingle,quoteleft,quoteright,quotedblleft,quotedblright" 	k="67" />
<hkern g1="c,ccedilla" 	g2="quotedbl,quotesingle,quoteleft,quoteright,quotedblleft,quotedblright" 	k="11" />
<hkern g1="b,p,thorn" 	g2="v,y,yacute,ydieresis" 	k="11" />
<hkern g1="b,p,thorn" 	g2="quotedbl,quotesingle,quoteleft,quoteright,quotedblleft,quotedblright" 	k="29" />
<hkern g1="b,p,thorn" 	g2="z" 	k="15" />
<hkern g1="b,p,thorn" 	g2="x" 	k="15" />
<hkern g1="e,egrave,eacute,ecircumflex,edieresis" 	g2="v,y,yacute,ydieresis" 	k="13" />
<hkern g1="e,egrave,eacute,ecircumflex,edieresis" 	g2="quotedbl,quotesingle,quoteleft,quoteright,quotedblleft,quotedblright" 	k="14" />
<hkern g1="h,m,n,ntilde" 	g2="quotedbl,quotesingle,quoteleft,quoteright,quotedblleft,quotedblright" 	k="16" />
<hkern g1="o,ograve,oacute,ocircumflex,otilde,odieresis" 	g2="v,y,yacute,ydieresis" 	k="15" />
<hkern g1="o,ograve,oacute,ocircumflex,otilde,odieresis" 	g2="quotedbl,quotesingle,quoteleft,quoteright,quotedblleft,quotedblright" 	k="20" />
<hkern g1="o,ograve,oacute,ocircumflex,otilde,odieresis" 	g2="z" 	k="16" />
<hkern g1="o,ograve,oacute,ocircumflex,otilde,odieresis" 	g2="x" 	k="21" />
<hkern g1="v,y,yacute,ydieresis" 	g2="quotedbl,quotesingle,quoteleft,quoteright,quotedblleft,quotedblright" 	k="-15" />
<hkern g1="v,y,yacute,ydieresis" 	g2="o,ograve,oacute,ocircumflex,otilde,odieresis" 	k="15" />
<hkern g1="v,y,yacute,ydieresis" 	g2="comma,period,colon,quotesinglbase,quotedblbase,ellipsis" 	k="107" />
<hkern g1="v,y,yacute,ydieresis" 	g2="c,d,e,g,q,ccedilla,egrave,eacute,ecircumflex,edieresis,oe" 	k="13" />
<hkern g1="v,y,yacute,ydieresis" 	g2="a,agrave,aacute,acircumflex,atilde,adieresis,aring" 	k="15" />
<hkern g1="r" 	g2="v,y,yacute,ydieresis" 	k="-18" />
<hkern g1="r" 	g2="quotedbl,quotesingle,quoteleft,quoteright,quotedblleft,quotedblright" 	k="-16" />
<hkern g1="r" 	g2="o,ograve,oacute,ocircumflex,otilde,odieresis" 	k="20" />
<hkern g1="r" 	g2="comma,period,colon,quotesinglbase,quotedblbase,ellipsis" 	k="123" />
<hkern g1="r" 	g2="c,d,e,g,q,ccedilla,egrave,eacute,ecircumflex,edieresis,oe" 	k="19" />
<hkern g1="x" 	g2="o,ograve,oacute,ocircumflex,otilde,odieresis" 	k="20" />
<hkern g1="x" 	g2="c,d,e,g,q,ccedilla,egrave,eacute,ecircumflex,edieresis,oe" 	k="20" />
<hkern g1="z" 	g2="o,ograve,oacute,ocircumflex,otilde,odieresis" 	k="16" />
<hkern g1="z" 	g2="c,d,e,g,q,ccedilla,egrave,eacute,ecircumflex,edieresis,oe" 	k="16" />
<hkern g1="quotedbl,quotesingle,quoteleft,quoteright,quotedblleft,quotedblright" 	g2="quotedbl,quotesingle,quoteleft,quoteright,quotedblleft,quotedblright" 	k="107" />
<hkern g1="quotedbl,quotesingle,quoteleft,quoteright,quotedblleft,quotedblright" 	g2="o,ograve,oacute,ocircumflex,otilde,odieresis" 	k="61" />
<hkern g1="quotedbl,quotesingle,quoteleft,quoteright,quotedblleft,quotedblright" 	g2="A,Agrave,Aacute,Acircumflex,Atilde,Adieresis,Aring" 	k="106" />
<hkern g1="quotedbl,quotesingle,quoteleft,quoteright,quotedblleft,quotedblright" 	g2="c,d,e,g,q,ccedilla,egrave,eacute,ecircumflex,edieresis,oe" 	k="59" />
<hkern g1="quotedbl,quotesingle,quoteleft,quoteright,quotedblleft,quotedblright" 	g2="m,n,p,ntilde" 	k="20" />
<hkern g1="quotedbl,quotesingle,quoteleft,quoteright,quotedblleft,quotedblright" 	g2="a,agrave,aacute,acircumflex,atilde,adieresis,aring" 	k="50" />
<hkern g1="quotedbl,quotesingle,quoteleft,quoteright,quotedblleft,quotedblright" 	g2="s" 	k="42" />
</font>
</defs></svg>
